{
  "charset": [
    "1",
    "2",
    "3",
    "6",
    "7",
    "8",
    "9",
    "C",
    "F",
    "K",
    "P",
    "S",
    "T",
    "a",
    "d",
    "f",
    "g",
    "j",
    "k",
    "l",
    "m",
    "n",
    "o",
    "p",
    "q",
    "r",
    "s",
    "t",
    "y"
  ],
  "characters": {
    "1": {
      "start": 0,
      "middle": 70,
      "end": 1,
      "only": 0,
      "total": 71,
      "ratios": {
        "start": 0.0,
        "middle": 0.9859154929577465,
        "end": 0.014084507042253521,
        "only": 0.0
      }
    },
    "2": {
      "start": 1,
      "middle": 238,
      "end": 0,
      "only": 0,
      "total": 239,
      "ratios": {
        "start": 0.0041841004184100415,
        "middle": 0.99581589958159,
        "end": 0.0,
        "only": 0.0
      }
    },
    "3": {
      "start": 0,
      "middle": 6,
      "end": 0,
      "only": 0,
      "total": 6,
      "ratios": {
        "start": 0.0,
        "middle": 1.0,
        "end": 0.0,
        "only": 0.0
      }
    },
    "6": {
      "start": 11,
      "middle": 673,
      "end": 8,
      "only": 0,
      "total": 692,
      "ratios": {
        "start": 0.015895953757225433,
        "middle": 0.9725433526011561,
        "end": 0.011560693641618497,
        "only": 0.0
      }
    },
    "7": {
      "start": 1,
      "middle": 260,
      "end": 3,
      "only": 0,
      "total": 264,
      "ratios": {
        "start": 0.003787878787878788,
        "middle": 0.9848484848484849,
        "end": 0.011363636363636364,
        "only": 0.0
      }
    },
    "8": {
      "start": 1,
      "middle": 25,
      "end": 0,
      "only": 0,
      "total": 26,
      "ratios": {
        "start": 0.038461538461538464,
        "middle": 0.9615384615384616,
        "end": 0.0,
        "only": 0.0
      }
    },
    "9": {
      "start": 0,
      "middle": 1,
      "end": 0,
      "only": 0,
      "total": 1,
      "ratios": {
        "start": 0.0,
        "middle": 1.0,
        "end": 0.0,
        "only": 0.0
      }
    },
    "C": {
      "start": 402,
      "middle": 234,
      "end": 1,
      "only": 0,
      "total": 637,
      "ratios": {
        "start": 0.631083202511774,
        "middle": 0.3673469387755102,
        "end": 0.0015698587127158557,
        "only": 0.0
      }
    },
    "F": {
      "start": 3,
      "middle": 3,
      "end": 0,
      "only": 0,
      "total": 6,
      "ratios": {
        "start": 0.5,
        "middle": 0.5,
        "end": 0.0,
        "only": 0.0
      }
    },
    "K": {
      "start": 43,
      "middle": 59,
      "end": 0,
      "only": 0,
      "total": 102,
      "ratios": {
        "start": 0.4215686274509804,
        "middle": 0.5784313725490197,
        "end": 0.0,
        "only": 0.0
      }
    },
    "P": {
      "start": 18,
      "middle": 5,
      "end": 0,
      "only": 0,
      "total": 23,
      "ratios": {
        "start": 0.782608695652174,
        "middle": 0.21739130434782608,
        "end": 0.0,
        "only": 0.0
      }
    },
    "S": {
      "start": 202,
      "middle": 63,
      "end": 1,
      "only": 1,
      "total": 267,
      "ratios": {
        "start": 0.7565543071161048,
        "middle": 0.23595505617977527,
        "end": 0.003745318352059925,
        "only": 0.003745318352059925
      }
    },
    "T": {
      "start": 66,
      "middle": 36,
      "end": 1,
      "only": 2,
      "total": 105,
      "ratios": {
        "start": 0.6285714285714286,
        "middle": 0.34285714285714286,
        "end": 0.009523809523809525,
        "only": 0.01904761904761905
      }
    },
    "a": {
      "start": 107,
      "middle": 537,
      "end": 6,
      "only": 0,
      "total": 650,
      "ratios": {
        "start": 0.1646153846153846,
        "middle": 0.8261538461538461,
        "end": 0.009230769230769232,
        "only": 0.0
      }
    },
    "d": {
      "start": 229,
      "middle": 326,
      "end": 24,
      "only": 2,
      "total": 581,
      "ratios": {
        "start": 0.39414802065404475,
        "middle": 0.5611015490533563,
        "end": 0.04130808950086059,
        "only": 0.0034423407917383822
      }
    },
    "f": {
      "start": 3,
      "middle": 10,
      "end": 0,
      "only": 0,
      "total": 13,
      "ratios": {
        "start": 0.23076923076923078,
        "middle": 0.7692307692307693,
        "end": 0.0,
        "only": 0.0
      }
    },
    "g": {
      "start": 1,
      "middle": 1,
      "end": 15,
      "only": 1,
      "total": 18,
      "ratios": {
        "start": 0.05555555555555555,
        "middle": 0.05555555555555555,
        "end": 0.8333333333333334,
        "only": 0.05555555555555555
      }
    },
    "j": {
      "start": 0,
      "middle": 1,
      "end": 1,
      "only": 0,
      "total": 2,
      "ratios": {
        "start": 0.0,
        "middle": 0.5,
        "end": 0.5,
        "only": 0.0
      }
    },
    "k": {
      "start": 66,
      "middle": 430,
      "end": 6,
      "only": 0,
      "total": 502,
      "ratios": {
        "start": 0.13147410358565736,
        "middle": 0.8565737051792829,
        "end": 0.01195219123505976,
        "only": 0.0
      }
    },
    "l": {
      "start": 11,
      "middle": 195,
      "end": 528,
      "only": 2,
      "total": 736,
      "ratios": {
        "start": 0.014945652173913044,
        "middle": 0.264945652173913,
        "end": 0.717391304347826,
        "only": 0.002717391304347826
      }
    },
    "m": {
      "start": 0,
      "middle": 5,
      "end": 67,
      "only": 0,
      "total": 72,
      "ratios": {
        "start": 0.0,
        "middle": 0.06944444444444445,
        "end": 0.9305555555555556,
        "only": 0.0
      }
    },
    "n": {
      "start": 0,
      "middle": 5,
      "end": 260,
      "only": 0,
      "total": 265,
      "ratios": {
        "start": 0.0,
        "middle": 0.018867924528301886,
        "end": 0.9811320754716981,
        "only": 0.0
      }
    },
    "o": {
      "start": 451,
      "middle": 1370,
      "end": 94,
      "only": 7,
      "total": 1922,
      "ratios": {
        "start": 0.23465140478668053,
        "middle": 0.7127991675338189,
        "end": 0.04890738813735692,
        "only": 0.0036420395421436005
      }
    },
    "p": {
      "start": 14,
      "middle": 42,
      "end": 3,
      "only": 0,
      "total": 59,
      "ratios": {
        "start": 0.23728813559322035,
        "middle": 0.711864406779661,
        "end": 0.05084745762711865,
        "only": 0.0
      }
    },
    "q": {
      "start": 216,
      "middle": 3,
      "end": 0,
      "only": 0,
      "total": 219,
      "ratios": {
        "start": 0.9863013698630136,
        "middle": 0.0136986301369863,
        "end": 0.0,
        "only": 0.0
      }
    },
    "r": {
      "start": 11,
      "middle": 80,
      "end": 338,
      "only": 14,
      "total": 443,
      "ratios": {
        "start": 0.024830699774266364,
        "middle": 0.18058690744920994,
        "end": 0.7629796839729119,
        "only": 0.03160270880361174
      }
    },
    "s": {
      "start": 98,
      "middle": 41,
      "end": 93,
      "only": 56,
      "total": 288,
      "ratios": {
        "start": 0.3402777777777778,
        "middle": 0.1423611111111111,
        "end": 0.3229166666666667,
        "only": 0.19444444444444445
      }
    },
    "t": {
      "start": 62,
      "middle": 182,
      "end": 3,
      "only": 0,
      "total": 247,
      "ratios": {
        "start": 0.25101214574898784,
        "middle": 0.7368421052631579,
        "end": 0.012145748987854251,
        "only": 0.0
      }
    },
    "y": {
      "start": 135,
      "middle": 20,
      "end": 699,
      "only": 8,
      "total": 862,
      "ratios": {
        "start": 0.15661252900232017,
        "middle": 0.02320185614849188,
        "end": 0.8109048723897911,
        "only": 0.009280742459396751
      }
    }
  },
  "position_totals": {
    "start": 2152,
    "middle": 4921,
    "end": 2152,
    "only": 93,
    "total": 9318
  },
  "name": "hand_4",
  "description": "Hand 4",
  "page_count": 40,
  "word_count": 2245
}