{
  "charset": [
    "1",
    "2",
    "3",
    "6",
    "7",
    "8",
    "9",
    "C",
    "F",
    "K",
    "P",
    "S",
    "T",
    "a",
    "d",
    "f",
    "g",
    "j",
    "k",
    "l",
    "m",
    "n",
    "o",
    "p",
    "q",
    "r",
    "s",
    "t",
    "y"
  ],
  "characters": {
    "1": {
      "start": 5,
      "middle": 347,
      "end": 5,
      "only": 0,
      "total": 357,
      "ratios": {
        "start": 0.014005602240896359,
        "middle": 0.9719887955182073,
        "end": 0.014005602240896359,
        "only": 0.0
      }
    },
    "2": {
      "start": 0,
      "middle": 1247,
      "end": 1,
      "only": 0,
      "total": 1248,
      "ratios": {
        "start": 0.0,
        "middle": 0.999198717948718,
        "end": 0.0008012820512820513,
        "only": 0.0
      }
    },
    "3": {
      "start": 1,
      "middle": 40,
      "end": 0,
      "only": 0,
      "total": 41,
      "ratios": {
        "start": 0.024390243902439025,
        "middle": 0.975609756097561,
        "end": 0.0,
        "only": 0.0
      }
    },
    "6": {
      "start": 22,
      "middle": 1247,
      "end": 25,
      "only": 1,
      "total": 1295,
      "ratios": {
        "start": 0.01698841698841699,
        "middle": 0.962934362934363,
        "end": 0.019305019305019305,
        "only": 0.0007722007722007722
      }
    },
    "7": {
      "start": 11,
      "middle": 446,
      "end": 6,
      "only": 0,
      "total": 463,
      "ratios": {
        "start": 0.023758099352051837,
        "middle": 0.9632829373650108,
        "end": 0.012958963282937365,
        "only": 0.0
      }
    },
    "8": {
      "start": 6,
      "middle": 53,
      "end": 8,
      "only": 0,
      "total": 67,
      "ratios": {
        "start": 0.08955223880597014,
        "middle": 0.7910447761194029,
        "end": 0.11940298507462686,
        "only": 0.0
      }
    },
    "9": {
      "start": 0,
      "middle": 3,
      "end": 0,
      "only": 0,
      "total": 3,
      "ratios": {
        "start": 0.0,
        "middle": 1.0,
        "end": 0.0,
        "only": 0.0
      }
    },
    "C": {
      "start": 1748,
      "middle": 1461,
      "end": 11,
      "only": 2,
      "total": 3222,
      "ratios": {
        "start": 0.54252017380509,
        "middle": 0.45344506517690875,
        "end": 0.003414028553693358,
        "only": 0.0006207324643078833
      }
    },
    "F": {
      "start": 21,
      "middle": 9,
      "end": 0,
      "only": 0,
      "total": 30,
      "ratios": {
        "start": 0.7,
        "middle": 0.3,
        "end": 0.0,
        "only": 0.0
      }
    },
    "K": {
      "start": 103,
      "middle": 110,
      "end": 2,
      "only": 0,
      "total": 215,
      "ratios": {
        "start": 0.4790697674418605,
        "middle": 0.5116279069767442,
        "end": 0.009302325581395349,
        "only": 0.0
      }
    },
    "P": {
      "start": 65,
      "middle": 24,
      "end": 0,
      "only": 0,
      "total": 89,
      "ratios": {
        "start": 0.7303370786516854,
        "middle": 0.2696629213483146,
        "end": 0.0,
        "only": 0.0
      }
    },
    "S": {
      "start": 778,
      "middle": 276,
      "end": 8,
      "only": 9,
      "total": 1071,
      "ratios": {
        "start": 0.7264239028944911,
        "middle": 0.25770308123249297,
        "end": 0.007469654528478058,
        "only": 0.008403361344537815
      }
    },
    "T": {
      "start": 344,
      "middle": 111,
      "end": 2,
      "only": 1,
      "total": 458,
      "ratios": {
        "start": 0.7510917030567685,
        "middle": 0.2423580786026201,
        "end": 0.004366812227074236,
        "only": 0.002183406113537118
      }
    },
    "a": {
      "start": 137,
      "middle": 2353,
      "end": 25,
      "only": 1,
      "total": 2516,
      "ratios": {
        "start": 0.05445151033386327,
        "middle": 0.935214626391097,
        "end": 0.009936406995230525,
        "only": 0.000397456279809221
      }
    },
    "d": {
      "start": 1412,
      "middle": 874,
      "end": 143,
      "only": 38,
      "total": 2467,
      "ratios": {
        "start": 0.5723550871503851,
        "middle": 0.35427644912849615,
        "end": 0.05796513984596676,
        "only": 0.015403323875152006
      }
    },
    "f": {
      "start": 35,
      "middle": 39,
      "end": 6,
      "only": 0,
      "total": 80,
      "ratios": {
        "start": 0.4375,
        "middle": 0.4875,
        "end": 0.075,
        "only": 0.0
      }
    },
    "g": {
      "start": 0,
      "middle": 2,
      "end": 43,
      "only": 8,
      "total": 53,
      "ratios": {
        "start": 0.0,
        "middle": 0.03773584905660377,
        "end": 0.8113207547169812,
        "only": 0.1509433962264151
      }
    },
    "j": {
      "start": 1,
      "middle": 1,
      "end": 2,
      "only": 0,
      "total": 4,
      "ratios": {
        "start": 0.25,
        "middle": 0.25,
        "end": 0.5,
        "only": 0.0
      }
    },
    "k": {
      "start": 414,
      "middle": 1270,
      "end": 17,
      "only": 2,
      "total": 1703,
      "ratios": {
        "start": 0.24310041103934232,
        "middle": 0.7457428068115091,
        "end": 0.009982384028185555,
        "only": 0.0011743981209630064
      }
    },
    "l": {
      "start": 45,
      "middle": 413,
      "end": 1456,
      "only": 27,
      "total": 1941,
      "ratios": {
        "start": 0.023183925811437404,
        "middle": 0.21277691911385885,
        "end": 0.7501287995878413,
        "only": 0.013910355486862442
      }
    },
    "m": {
      "start": 1,
      "middle": 4,
      "end": 241,
      "only": 1,
      "total": 247,
      "ratios": {
        "start": 0.004048582995951417,
        "middle": 0.016194331983805668,
        "end": 0.9757085020242915,
        "only": 0.004048582995951417
      }
    },
    "n": {
      "start": 0,
      "middle": 13,
      "end": 1492,
      "only": 3,
      "total": 1508,
      "ratios": {
        "start": 0.0,
        "middle": 0.008620689655172414,
        "end": 0.9893899204244032,
        "only": 0.001989389920424403
      }
    },
    "o": {
      "start": 1301,
      "middle": 4562,
      "end": 476,
      "only": 61,
      "total": 6400,
      "ratios": {
        "start": 0.20328125,
        "middle": 0.7128125,
        "end": 0.074375,
        "only": 0.00953125
      }
    },
    "p": {
      "start": 102,
      "middle": 128,
      "end": 6,
      "only": 0,
      "total": 236,
      "ratios": {
        "start": 0.4322033898305085,
        "middle": 0.5423728813559322,
        "end": 0.025423728813559324,
        "only": 0.0
      }
    },
    "q": {
      "start": 834,
      "middle": 5,
      "end": 0,
      "only": 0,
      "total": 839,
      "ratios": {
        "start": 0.9940405244338498,
        "middle": 0.0059594755661501785,
        "end": 0.0,
        "only": 0.0
      }
    },
    "r": {
      "start": 27,
      "middle": 223,
      "end": 1380,
      "only": 41,
      "total": 1671,
      "ratios": {
        "start": 0.01615798922800718,
        "middle": 0.13345302214242968,
        "end": 0.8258527827648114,
        "only": 0.024536205864751647
      }
    },
    "s": {
      "start": 227,
      "middle": 82,
      "end": 253,
      "only": 148,
      "total": 710,
      "ratios": {
        "start": 0.31971830985915495,
        "middle": 0.11549295774647887,
        "end": 0.3563380281690141,
        "only": 0.2084507042253521
      }
    },
    "t": {
      "start": 287,
      "middle": 981,
      "end": 26,
      "only": 7,
      "total": 1301,
      "ratios": {
        "start": 0.22059953881629515,
        "middle": 0.7540353574173713,
        "end": 0.019984627209838585,
        "only": 0.005380476556495004
      }
    },
    "y": {
      "start": 477,
      "middle": 162,
      "end": 2770,
      "only": 82,
      "total": 3491,
      "ratios": {
        "start": 0.13663706674305356,
        "middle": 0.04640504153537668,
        "end": 0.7934689200802062,
        "only": 0.023488971641363505
      }
    }
  },
  "position_totals": {
    "start": 8404,
    "middle": 16486,
    "end": 8404,
    "only": 432,
    "total": 33726
  },
  "name": "hand_1",
  "description": "Hand 1",
  "page_count": 98,
  "word_count": 8836
}