{
  "charset": [
    "1",
    "2",
    "3",
    "6",
    "7",
    "8",
    "9",
    "C",
    "F",
    "K",
    "P",
    "S",
    "T",
    "a",
    "d",
    "f",
    "g",
    "j",
    "k",
    "l",
    "m",
    "n",
    "o",
    "p",
    "q",
    "r",
    "s",
    "t",
    "x",
    "y"
  ],
  "characters": {
    "1": {
      "start": 5,
      "middle": 458,
      "end": 5,
      "only": 0,
      "total": 468,
      "ratios": {
        "start": 0.010683760683760684,
        "middle": 0.9786324786324786,
        "end": 0.010683760683760684,
        "only": 0.0
      }
    },
    "2": {
      "start": 0,
      "middle": 1521,
      "end": 1,
      "only": 0,
      "total": 1522,
      "ratios": {
        "start": 0.0,
        "middle": 0.9993429697766097,
        "end": 0.000657030223390276,
        "only": 0.0
      }
    },
    "3": {
      "start": 1,
      "middle": 43,
      "end": 0,
      "only": 0,
      "total": 44,
      "ratios": {
        "start": 0.022727272727272728,
        "middle": 0.9772727272727273,
        "end": 0.0,
        "only": 0.0
      }
    },
    "6": {
      "start": 25,
      "middle": 2028,
      "end": 32,
      "only": 0,
      "total": 2085,
      "ratios": {
        "start": 0.011990407673860911,
        "middle": 0.9726618705035971,
        "end": 0.015347721822541967,
        "only": 0.0
      }
    },
    "7": {
      "start": 11,
      "middle": 627,
      "end": 16,
      "only": 0,
      "total": 654,
      "ratios": {
        "start": 0.016819571865443424,
        "middle": 0.9587155963302753,
        "end": 0.024464831804281346,
        "only": 0.0
      }
    },
    "8": {
      "start": 8,
      "middle": 63,
      "end": 8,
      "only": 1,
      "total": 80,
      "ratios": {
        "start": 0.1,
        "middle": 0.7875,
        "end": 0.1,
        "only": 0.0125
      }
    },
    "9": {
      "start": 0,
      "middle": 4,
      "end": 0,
      "only": 0,
      "total": 4,
      "ratios": {
        "start": 0.0,
        "middle": 1.0,
        "end": 0.0,
        "only": 0.0
      }
    },
    "C": {
      "start": 2199,
      "middle": 1867,
      "end": 12,
      "only": 2,
      "total": 4080,
      "ratios": {
        "start": 0.5389705882352941,
        "middle": 0.45759803921568626,
        "end": 0.0029411764705882353,
        "only": 0.0004901960784313725
      }
    },
    "F": {
      "start": 19,
      "middle": 17,
      "end": 0,
      "only": 0,
      "total": 36,
      "ratios": {
        "start": 0.5277777777777778,
        "middle": 0.4722222222222222,
        "end": 0.0,
        "only": 0.0
      }
    },
    "K": {
      "start": 120,
      "middle": 183,
      "end": 2,
      "only": 0,
      "total": 305,
      "ratios": {
        "start": 0.39344262295081966,
        "middle": 0.6,
        "end": 0.006557377049180328,
        "only": 0.0
      }
    },
    "P": {
      "start": 69,
      "middle": 28,
      "end": 0,
      "only": 0,
      "total": 97,
      "ratios": {
        "start": 0.711340206185567,
        "middle": 0.28865979381443296,
        "end": 0.0,
        "only": 0.0
      }
    },
    "S": {
      "start": 983,
      "middle": 374,
      "end": 11,
      "only": 11,
      "total": 1379,
      "ratios": {
        "start": 0.7128353879622915,
        "middle": 0.271211022480058,
        "end": 0.007976794778825236,
        "only": 0.007976794778825236
      }
    },
    "T": {
      "start": 365,
      "middle": 157,
      "end": 3,
      "only": 3,
      "total": 528,
      "ratios": {
        "start": 0.6912878787878788,
        "middle": 0.29734848484848486,
        "end": 0.005681818181818182,
        "only": 0.005681818181818182
      }
    },
    "a": {
      "start": 359,
      "middle": 3256,
      "end": 25,
      "only": 1,
      "total": 3641,
      "ratios": {
        "start": 0.09859928591046416,
        "middle": 0.8942598187311178,
        "end": 0.006866245536940401,
        "only": 0.00027464982147761604
      }
    },
    "d": {
      "start": 1603,
      "middle": 1957,
      "end": 210,
      "only": 36,
      "total": 3806,
      "ratios": {
        "start": 0.4211770888071466,
        "middle": 0.5141881240147136,
        "end": 0.055176037834997374,
        "only": 0.009458749343142408
      }
    },
    "f": {
      "start": 50,
      "middle": 91,
      "end": 12,
      "only": 0,
      "total": 153,
      "ratios": {
        "start": 0.32679738562091504,
        "middle": 0.5947712418300654,
        "end": 0.0784313725490196,
        "only": 0.0
      }
    },
    "g": {
      "start": 0,
      "middle": 1,
      "end": 60,
      "only": 9,
      "total": 70,
      "ratios": {
        "start": 0.0,
        "middle": 0.014285714285714285,
        "end": 0.8571428571428571,
        "only": 0.12857142857142856
      }
    },
    "j": {
      "start": 1,
      "middle": 1,
      "end": 3,
      "only": 0,
      "total": 5,
      "ratios": {
        "start": 0.2,
        "middle": 0.2,
        "end": 0.6,
        "only": 0.0
      }
    },
    "k": {
      "start": 538,
      "middle": 1930,
      "end": 32,
      "only": 5,
      "total": 2505,
      "ratios": {
        "start": 0.21477045908183634,
        "middle": 0.7704590818363274,
        "end": 0.01277445109780439,
        "only": 0.001996007984031936
      }
    },
    "l": {
      "start": 96,
      "middle": 638,
      "end": 1638,
      "only": 25,
      "total": 2397,
      "ratios": {
        "start": 0.04005006257822278,
        "middle": 0.2661660408844389,
        "end": 0.6833541927409261,
        "only": 0.010429703796412181
      }
    },
    "m": {
      "start": 1,
      "middle": 8,
      "end": 339,
      "only": 4,
      "total": 352,
      "ratios": {
        "start": 0.002840909090909091,
        "middle": 0.022727272727272728,
        "end": 0.9630681818181818,
        "only": 0.011363636363636364
      }
    },
    "n": {
      "start": 0,
      "middle": 16,
      "end": 1835,
      "only": 3,
      "total": 1854,
      "ratios": {
        "start": 0.0,
        "middle": 0.008629989212513484,
        "end": 0.9897518878101402,
        "only": 0.0016181229773462784
      }
    },
    "o": {
      "start": 1940,
      "middle": 5160,
      "end": 500,
      "only": 65,
      "total": 7665,
      "ratios": {
        "start": 0.2530984996738421,
        "middle": 0.6731898238747553,
        "end": 0.06523157208088715,
        "only": 0.008480104370515329
      }
    },
    "p": {
      "start": 144,
      "middle": 207,
      "end": 11,
      "only": 1,
      "total": 363,
      "ratios": {
        "start": 0.39669421487603307,
        "middle": 0.5702479338842975,
        "end": 0.030303030303030304,
        "only": 0.0027548209366391185
      }
    },
    "q": {
      "start": 1067,
      "middle": 6,
      "end": 0,
      "only": 0,
      "total": 1073,
      "ratios": {
        "start": 0.994408201304753,
        "middle": 0.005591798695246971,
        "end": 0.0,
        "only": 0.0
      }
    },
    "r": {
      "start": 26,
      "middle": 283,
      "end": 1833,
      "only": 47,
      "total": 2189,
      "ratios": {
        "start": 0.01187756966651439,
        "middle": 0.12928277752398357,
        "end": 0.8373686614892645,
        "only": 0.02147099132023755
      }
    },
    "s": {
      "start": 266,
      "middle": 106,
      "end": 339,
      "only": 191,
      "total": 902,
      "ratios": {
        "start": 0.29490022172949004,
        "middle": 0.11751662971175167,
        "end": 0.37583148558758317,
        "only": 0.21175166297117518
      }
    },
    "t": {
      "start": 432,
      "middle": 1341,
      "end": 34,
      "only": 7,
      "total": 1814,
      "ratios": {
        "start": 0.23814773980154355,
        "middle": 0.7392502756339581,
        "end": 0.018743109151047408,
        "only": 0.003858875413450937
      }
    },
    "x": {
      "start": 5,
      "middle": 0,
      "end": 1,
      "only": 0,
      "total": 6,
      "ratios": {
        "start": 0.8333333333333334,
        "middle": 0.0,
        "end": 0.16666666666666666,
        "only": 0.0
      }
    },
    "y": {
      "start": 686,
      "middle": 204,
      "end": 4057,
      "only": 107,
      "total": 5054,
      "ratios": {
        "start": 0.13573407202216067,
        "middle": 0.04036406806489909,
        "end": 0.8027305104867432,
        "only": 0.021171349426197073
      }
    }
  },
  "position_totals": {
    "start": 11019,
    "middle": 22575,
    "end": 11019,
    "only": 518,
    "total": 45131
  },
  "name": "herbal",
  "description": "Herbal section",
  "page_count": 129,
  "word_count": 11537
}