{
  "charset": [
    "1",
    "2",
    "3",
    "6",
    "7",
    "8",
    "9",
    "C",
    "F",
    "K",
    "P",
    "S",
    "T",
    "a",
    "d",
    "f",
    "g",
    "j",
    "k",
    "l",
    "m",
    "n",
    "o",
    "p",
    "q",
    "r",
    "s",
    "t",
    "y"
  ],
  "characters": {
    "1": {
      "start": 5,
      "middle": 274,
      "end": 5,
      "only": 0,
      "total": 284,
      "ratios": {
        "start": 0.017605633802816902,
        "middle": 0.9647887323943662,
        "end": 0.017605633802816902,
        "only": 0.0
      }
    },
    "2": {
      "start": 0,
      "middle": 1114,
      "end": 0,
      "only": 0,
      "total": 1114,
      "ratios": {
        "start": 0.0,
        "middle": 1.0,
        "end": 0.0,
        "only": 0.0
      }
    },
    "3": {
      "start": 1,
      "middle": 30,
      "end": 0,
      "only": 0,
      "total": 31,
      "ratios": {
        "start": 0.03225806451612903,
        "middle": 0.967741935483871,
        "end": 0.0,
        "only": 0.0
      }
    },
    "6": {
      "start": 18,
      "middle": 1010,
      "end": 22,
      "only": 0,
      "total": 1050,
      "ratios": {
        "start": 0.017142857142857144,
        "middle": 0.9619047619047619,
        "end": 0.02095238095238095,
        "only": 0.0
      }
    },
    "7": {
      "start": 7,
      "middle": 357,
      "end": 7,
      "only": 0,
      "total": 371,
      "ratios": {
        "start": 0.018867924528301886,
        "middle": 0.9622641509433962,
        "end": 0.018867924528301886,
        "only": 0.0
      }
    },
    "8": {
      "start": 4,
      "middle": 48,
      "end": 8,
      "only": 0,
      "total": 60,
      "ratios": {
        "start": 0.06666666666666667,
        "middle": 0.8,
        "end": 0.13333333333333333,
        "only": 0.0
      }
    },
    "9": {
      "start": 0,
      "middle": 4,
      "end": 0,
      "only": 0,
      "total": 4,
      "ratios": {
        "start": 0.0,
        "middle": 1.0,
        "end": 0.0,
        "only": 0.0
      }
    },
    "C": {
      "start": 1607,
      "middle": 1470,
      "end": 11,
      "only": 1,
      "total": 3089,
      "ratios": {
        "start": 0.5202330851408222,
        "middle": 0.47588216251213983,
        "end": 0.00356102298478472,
        "only": 0.0003237293622531564
      }
    },
    "F": {
      "start": 17,
      "middle": 10,
      "end": 0,
      "only": 0,
      "total": 27,
      "ratios": {
        "start": 0.6296296296296297,
        "middle": 0.37037037037037035,
        "end": 0.0,
        "only": 0.0
      }
    },
    "K": {
      "start": 105,
      "middle": 88,
      "end": 2,
      "only": 0,
      "total": 195,
      "ratios": {
        "start": 0.5384615384615384,
        "middle": 0.4512820512820513,
        "end": 0.010256410256410256,
        "only": 0.0
      }
    },
    "P": {
      "start": 60,
      "middle": 23,
      "end": 0,
      "only": 0,
      "total": 83,
      "ratios": {
        "start": 0.7228915662650602,
        "middle": 0.27710843373493976,
        "end": 0.0,
        "only": 0.0
      }
    },
    "S": {
      "start": 713,
      "middle": 271,
      "end": 8,
      "only": 8,
      "total": 1000,
      "ratios": {
        "start": 0.713,
        "middle": 0.271,
        "end": 0.008,
        "only": 0.008
      }
    },
    "T": {
      "start": 346,
      "middle": 120,
      "end": 3,
      "only": 3,
      "total": 472,
      "ratios": {
        "start": 0.7330508474576272,
        "middle": 0.2542372881355932,
        "end": 0.006355932203389831,
        "only": 0.006355932203389831
      }
    },
    "a": {
      "start": 110,
      "middle": 2084,
      "end": 22,
      "only": 0,
      "total": 2216,
      "ratios": {
        "start": 0.04963898916967509,
        "middle": 0.9404332129963899,
        "end": 0.009927797833935019,
        "only": 0.0
      }
    },
    "d": {
      "start": 1250,
      "middle": 800,
      "end": 138,
      "only": 35,
      "total": 2223,
      "ratios": {
        "start": 0.5623031938821412,
        "middle": 0.3598740440845704,
        "end": 0.0620782726045884,
        "only": 0.015744489428699954
      }
    },
    "f": {
      "start": 30,
      "middle": 31,
      "end": 5,
      "only": 0,
      "total": 66,
      "ratios": {
        "start": 0.45454545454545453,
        "middle": 0.4696969696969697,
        "end": 0.07575757575757576,
        "only": 0.0
      }
    },
    "g": {
      "start": 0,
      "middle": 1,
      "end": 47,
      "only": 8,
      "total": 56,
      "ratios": {
        "start": 0.0,
        "middle": 0.017857142857142856,
        "end": 0.8392857142857143,
        "only": 0.14285714285714285
      }
    },
    "j": {
      "start": 1,
      "middle": 1,
      "end": 3,
      "only": 0,
      "total": 5,
      "ratios": {
        "start": 0.2,
        "middle": 0.2,
        "end": 0.6,
        "only": 0.0
      }
    },
    "k": {
      "start": 381,
      "middle": 1049,
      "end": 14,
      "only": 2,
      "total": 1446,
      "ratios": {
        "start": 0.26348547717842324,
        "middle": 0.7254495159059474,
        "end": 0.009681881051175657,
        "only": 0.0013831258644536654
      }
    },
    "l": {
      "start": 40,
      "middle": 359,
      "end": 1321,
      "only": 21,
      "total": 1741,
      "ratios": {
        "start": 0.022975301550832855,
        "middle": 0.20620333141872488,
        "end": 0.758759333716255,
        "only": 0.012062033314187249
      }
    },
    "m": {
      "start": 1,
      "middle": 4,
      "end": 225,
      "only": 1,
      "total": 231,
      "ratios": {
        "start": 0.004329004329004329,
        "middle": 0.017316017316017316,
        "end": 0.974025974025974,
        "only": 0.004329004329004329
      }
    },
    "n": {
      "start": 0,
      "middle": 15,
      "end": 1314,
      "only": 3,
      "total": 1332,
      "ratios": {
        "start": 0.0,
        "middle": 0.01126126126126126,
        "end": 0.9864864864864865,
        "only": 0.0022522522522522522
      }
    },
    "o": {
      "start": 1133,
      "middle": 4209,
      "end": 452,
      "only": 49,
      "total": 5843,
      "ratios": {
        "start": 0.19390723943179874,
        "middle": 0.7203491357179531,
        "end": 0.07735752182098238,
        "only": 0.008386103029265788
      }
    },
    "p": {
      "start": 91,
      "middle": 126,
      "end": 7,
      "only": 0,
      "total": 224,
      "ratios": {
        "start": 0.40625,
        "middle": 0.5625,
        "end": 0.03125,
        "only": 0.0
      }
    },
    "q": {
      "start": 721,
      "middle": 6,
      "end": 0,
      "only": 0,
      "total": 727,
      "ratios": {
        "start": 0.9917469050894085,
        "middle": 0.008253094910591471,
        "end": 0.0,
        "only": 0.0
      }
    },
    "r": {
      "start": 22,
      "middle": 196,
      "end": 1261,
      "only": 39,
      "total": 1518,
      "ratios": {
        "start": 0.014492753623188406,
        "middle": 0.12911725955204217,
        "end": 0.8306982872200264,
        "only": 0.025691699604743084
      }
    },
    "s": {
      "start": 218,
      "middle": 83,
      "end": 235,
      "only": 149,
      "total": 685,
      "ratios": {
        "start": 0.3182481751824818,
        "middle": 0.12116788321167883,
        "end": 0.34306569343065696,
        "only": 0.21751824817518248
      }
    },
    "t": {
      "start": 293,
      "middle": 971,
      "end": 26,
      "only": 7,
      "total": 1297,
      "ratios": {
        "start": 0.2259059367771781,
        "middle": 0.748650732459522,
        "end": 0.020046260601387818,
        "only": 0.005397070161912105
      }
    },
    "y": {
      "start": 446,
      "middle": 148,
      "end": 2484,
      "only": 76,
      "total": 3154,
      "ratios": {
        "start": 0.14140773620798985,
        "middle": 0.046924540266328474,
        "end": 0.787571337983513,
        "only": 0.024096385542168676
      }
    }
  },
  "position_totals": {
    "start": 7620,
    "middle": 14902,
    "end": 7620,
    "only": 402,
    "total": 30544
  },
  "name": "herbal_lang_a",
  "description": "Herbal section, Language A",
  "page_count": 95,
  "word_count": 8022
}