{
  "charset": [
    "1",
    "2",
    "3",
    "6",
    "7",
    "8",
    "9",
    "C",
    "F",
    "K",
    "P",
    "S",
    "T",
    "a",
    "d",
    "f",
    "g",
    "k",
    "l",
    "m",
    "n",
    "o",
    "p",
    "q",
    "r",
    "s",
    "t",
    "x",
    "y"
  ],
  "characters": {
    "1": {
      "start": 0,
      "middle": 152,
      "end": 0,
      "only": 1,
      "total": 153,
      "ratios": {
        "start": 0.0,
        "middle": 0.9934640522875817,
        "end": 0.0,
        "only": 0.006535947712418301
      }
    },
    "2": {
      "start": 0,
      "middle": 276,
      "end": 0,
      "only": 0,
      "total": 276,
      "ratios": {
        "start": 0.0,
        "middle": 1.0,
        "end": 0.0,
        "only": 0.0
      }
    },
    "3": {
      "start": 0,
      "middle": 22,
      "end": 0,
      "only": 0,
      "total": 22,
      "ratios": {
        "start": 0.0,
        "middle": 1.0,
        "end": 0.0,
        "only": 0.0
      }
    },
    "6": {
      "start": 2,
      "middle": 588,
      "end": 2,
      "only": 0,
      "total": 592,
      "ratios": {
        "start": 0.0033783783783783786,
        "middle": 0.9932432432432432,
        "end": 0.0033783783783783786,
        "only": 0.0
      }
    },
    "7": {
      "start": 1,
      "middle": 179,
      "end": 0,
      "only": 0,
      "total": 180,
      "ratios": {
        "start": 0.005555555555555556,
        "middle": 0.9944444444444445,
        "end": 0.0,
        "only": 0.0
      }
    },
    "8": {
      "start": 1,
      "middle": 16,
      "end": 1,
      "only": 0,
      "total": 18,
      "ratios": {
        "start": 0.05555555555555555,
        "middle": 0.8888888888888888,
        "end": 0.05555555555555555,
        "only": 0.0
      }
    },
    "9": {
      "start": 0,
      "middle": 1,
      "end": 0,
      "only": 0,
      "total": 1,
      "ratios": {
        "start": 0.0,
        "middle": 1.0,
        "end": 0.0,
        "only": 0.0
      }
    },
    "C": {
      "start": 290,
      "middle": 232,
      "end": 0,
      "only": 0,
      "total": 522,
      "ratios": {
        "start": 0.5555555555555556,
        "middle": 0.4444444444444444,
        "end": 0.0,
        "only": 0.0
      }
    },
    "F": {
      "start": 4,
      "middle": 5,
      "end": 0,
      "only": 0,
      "total": 9,
      "ratios": {
        "start": 0.4444444444444444,
        "middle": 0.5555555555555556,
        "end": 0.0,
        "only": 0.0
      }
    },
    "K": {
      "start": 4,
      "middle": 38,
      "end": 1,
      "only": 0,
      "total": 43,
      "ratios": {
        "start": 0.09302325581395349,
        "middle": 0.8837209302325582,
        "end": 0.023255813953488372,
        "only": 0.0
      }
    },
    "P": {
      "start": 13,
      "middle": 11,
      "end": 0,
      "only": 0,
      "total": 24,
      "ratios": {
        "start": 0.5416666666666666,
        "middle": 0.4583333333333333,
        "end": 0.0,
        "only": 0.0
      }
    },
    "S": {
      "start": 250,
      "middle": 104,
      "end": 1,
      "only": 1,
      "total": 356,
      "ratios": {
        "start": 0.702247191011236,
        "middle": 0.29213483146067415,
        "end": 0.0028089887640449437,
        "only": 0.0028089887640449437
      }
    },
    "T": {
      "start": 20,
      "middle": 35,
      "end": 0,
      "only": 0,
      "total": 55,
      "ratios": {
        "start": 0.36363636363636365,
        "middle": 0.6363636363636364,
        "end": 0.0,
        "only": 0.0
      }
    },
    "a": {
      "start": 159,
      "middle": 836,
      "end": 5,
      "only": 0,
      "total": 1000,
      "ratios": {
        "start": 0.159,
        "middle": 0.836,
        "end": 0.005,
        "only": 0.0
      }
    },
    "d": {
      "start": 194,
      "middle": 602,
      "end": 38,
      "only": 4,
      "total": 838,
      "ratios": {
        "start": 0.2315035799522673,
        "middle": 0.7183770883054893,
        "end": 0.045346062052505964,
        "only": 0.00477326968973747
      }
    },
    "f": {
      "start": 6,
      "middle": 23,
      "end": 1,
      "only": 0,
      "total": 30,
      "ratios": {
        "start": 0.2,
        "middle": 0.7666666666666667,
        "end": 0.03333333333333333,
        "only": 0.0
      }
    },
    "g": {
      "start": 0,
      "middle": 0,
      "end": 4,
      "only": 1,
      "total": 5,
      "ratios": {
        "start": 0.0,
        "middle": 0.0,
        "end": 0.8,
        "only": 0.2
      }
    },
    "k": {
      "start": 78,
      "middle": 486,
      "end": 4,
      "only": 0,
      "total": 568,
      "ratios": {
        "start": 0.13732394366197184,
        "middle": 0.8556338028169014,
        "end": 0.007042253521126761,
        "only": 0.0
      }
    },
    "l": {
      "start": 92,
      "middle": 204,
      "end": 293,
      "only": 7,
      "total": 596,
      "ratios": {
        "start": 0.15436241610738255,
        "middle": 0.3422818791946309,
        "end": 0.49161073825503354,
        "only": 0.01174496644295302
      }
    },
    "m": {
      "start": 0,
      "middle": 3,
      "end": 52,
      "only": 0,
      "total": 55,
      "ratios": {
        "start": 0.0,
        "middle": 0.05454545454545454,
        "end": 0.9454545454545454,
        "only": 0.0
      }
    },
    "n": {
      "start": 0,
      "middle": 2,
      "end": 388,
      "only": 0,
      "total": 390,
      "ratios": {
        "start": 0.0,
        "middle": 0.005128205128205128,
        "end": 0.9948717948717949,
        "only": 0.0
      }
    },
    "o": {
      "start": 503,
      "middle": 764,
      "end": 43,
      "only": 4,
      "total": 1314,
      "ratios": {
        "start": 0.3828006088280061,
        "middle": 0.5814307458143074,
        "end": 0.03272450532724505,
        "only": 0.0030441400304414
      }
    },
    "p": {
      "start": 40,
      "middle": 71,
      "end": 3,
      "only": 0,
      "total": 114,
      "ratios": {
        "start": 0.3508771929824561,
        "middle": 0.6228070175438597,
        "end": 0.02631578947368421,
        "only": 0.0
      }
    },
    "q": {
      "start": 328,
      "middle": 0,
      "end": 0,
      "only": 0,
      "total": 328,
      "ratios": {
        "start": 1.0,
        "middle": 0.0,
        "end": 0.0,
        "only": 0.0
      }
    },
    "r": {
      "start": 17,
      "middle": 83,
      "end": 428,
      "only": 7,
      "total": 535,
      "ratios": {
        "start": 0.03177570093457944,
        "middle": 0.15514018691588785,
        "end": 0.8,
        "only": 0.013084112149532711
      }
    },
    "s": {
      "start": 49,
      "middle": 13,
      "end": 44,
      "only": 9,
      "total": 115,
      "ratios": {
        "start": 0.4260869565217391,
        "middle": 0.11304347826086956,
        "end": 0.3826086956521739,
        "only": 0.0782608695652174
      }
    },
    "t": {
      "start": 56,
      "middle": 295,
      "end": 2,
      "only": 0,
      "total": 353,
      "ratios": {
        "start": 0.15864022662889518,
        "middle": 0.8356940509915014,
        "end": 0.0056657223796034,
        "only": 0.0
      }
    },
    "x": {
      "start": 0,
      "middle": 2,
      "end": 0,
      "only": 0,
      "total": 2,
      "ratios": {
        "start": 0.0,
        "middle": 1.0,
        "end": 0.0,
        "only": 0.0
      }
    },
    "y": {
      "start": 135,
      "middle": 28,
      "end": 932,
      "only": 20,
      "total": 1115,
      "ratios": {
        "start": 0.1210762331838565,
        "middle": 0.025112107623318385,
        "end": 0.8358744394618834,
        "only": 0.017937219730941704
      }
    }
  },
  "position_totals": {
    "start": 2242,
    "middle": 5071,
    "end": 2242,
    "only": 54,
    "total": 9609
  },
  "name": "text_only",
  "description": "Text only pages",
  "page_count": 7,
  "word_count": 2296
}