{
  "charset": [
    "1",
    "2",
    "3",
    "4",
    "6",
    "7",
    "8",
    "9",
    "C",
    "F",
    "K",
    "P",
    "S",
    "T",
    "a",
    "d",
    "f",
    "g",
    "j",
    "k",
    "l",
    "m",
    "n",
    "o",
    "p",
    "q",
    "r",
    "s",
    "t",
    "x",
    "y"
  ],
  "characters": {
    "1": {
      "start": 9,
      "middle": 2403,
      "end": 11,
      "only": 2,
      "total": 2425,
      "ratios": {
        "start": 0.003711340206185567,
        "middle": 0.9909278350515464,
        "end": 0.004536082474226804,
        "only": 0.0008247422680412372
      }
    },
    "2": {
      "start": 5,
      "middle": 4066,
      "end": 3,
      "only": 0,
      "total": 4074,
      "ratios": {
        "start": 0.0012272950417280314,
        "middle": 0.9980363279332352,
        "end": 0.0007363770250368188,
        "only": 0.0
      }
    },
    "3": {
      "start": 1,
      "middle": 170,
      "end": 2,
      "only": 0,
      "total": 173,
      "ratios": {
        "start": 0.005780346820809248,
        "middle": 0.9826589595375722,
        "end": 0.011560693641618497,
        "only": 0.0
      }
    },
    "4": {
      "start": 0,
      "middle": 1,
      "end": 0,
      "only": 0,
      "total": 1,
      "ratios": {
        "start": 0.0,
        "middle": 1.0,
        "end": 0.0,
        "only": 0.0
      }
    },
    "6": {
      "start": 52,
      "middle": 9062,
      "end": 58,
      "only": 3,
      "total": 9175,
      "ratios": {
        "start": 0.005667574931880109,
        "middle": 0.9876839237057221,
        "end": 0.006321525885558583,
        "only": 0.00032697547683923706
      }
    },
    "7": {
      "start": 29,
      "middle": 3893,
      "end": 31,
      "only": 0,
      "total": 3953,
      "ratios": {
        "start": 0.007336200354161397,
        "middle": 0.9848216544396661,
        "end": 0.007842145206172527,
        "only": 0.0
      }
    },
    "8": {
      "start": 22,
      "middle": 318,
      "end": 9,
      "only": 1,
      "total": 350,
      "ratios": {
        "start": 0.06285714285714286,
        "middle": 0.9085714285714286,
        "end": 0.025714285714285714,
        "only": 0.002857142857142857
      }
    },
    "9": {
      "start": 0,
      "middle": 6,
      "end": 0,
      "only": 0,
      "total": 6,
      "ratios": {
        "start": 0.0,
        "middle": 1.0,
        "end": 0.0,
        "only": 0.0
      }
    },
    "C": {
      "start": 5656,
      "middle": 4527,
      "end": 17,
      "only": 8,
      "total": 10208,
      "ratios": {
        "start": 0.5540752351097179,
        "middle": 0.4434757053291536,
        "end": 0.0016653605015673981,
        "only": 0.0007836990595611285
      }
    },
    "F": {
      "start": 32,
      "middle": 34,
      "end": 0,
      "only": 0,
      "total": 66,
      "ratios": {
        "start": 0.48484848484848486,
        "middle": 0.5151515151515151,
        "end": 0.0,
        "only": 0.0
      }
    },
    "K": {
      "start": 183,
      "middle": 680,
      "end": 3,
      "only": 0,
      "total": 866,
      "ratios": {
        "start": 0.2113163972286374,
        "middle": 0.7852193995381063,
        "end": 0.003464203233256351,
        "only": 0.0
      }
    },
    "P": {
      "start": 119,
      "middle": 79,
      "end": 0,
      "only": 0,
      "total": 198,
      "ratios": {
        "start": 0.601010101010101,
        "middle": 0.398989898989899,
        "end": 0.0,
        "only": 0.0
      }
    },
    "S": {
      "start": 3044,
      "middle": 1187,
      "end": 14,
      "only": 18,
      "total": 4263,
      "ratios": {
        "start": 0.7140511376964579,
        "middle": 0.27844241144733756,
        "end": 0.003284072249589491,
        "only": 0.00422237860661506
      }
    },
    "T": {
      "start": 470,
      "middle": 411,
      "end": 4,
      "only": 3,
      "total": 888,
      "ratios": {
        "start": 0.5292792792792793,
        "middle": 0.46283783783783783,
        "end": 0.0045045045045045045,
        "only": 0.0033783783783783786
      }
    },
    "a": {
      "start": 1815,
      "middle": 11045,
      "end": 59,
      "only": 8,
      "total": 12927,
      "ratios": {
        "start": 0.1404038059874681,
        "middle": 0.8544132435986694,
        "end": 0.004564090662953508,
        "only": 0.0006188597509089503
      }
    },
    "d": {
      "start": 3248,
      "middle": 8074,
      "end": 530,
      "only": 49,
      "total": 11901,
      "ratios": {
        "start": 0.272918242164524,
        "middle": 0.6784303840013445,
        "end": 0.04453407276699437,
        "only": 0.004117301067137215
      }
    },
    "f": {
      "start": 108,
      "middle": 225,
      "end": 17,
      "only": 1,
      "total": 351,
      "ratios": {
        "start": 0.3076923076923077,
        "middle": 0.6410256410256411,
        "end": 0.04843304843304843,
        "only": 0.002849002849002849
      }
    },
    "g": {
      "start": 2,
      "middle": 5,
      "end": 103,
      "only": 12,
      "total": 122,
      "ratios": {
        "start": 0.01639344262295082,
        "middle": 0.040983606557377046,
        "end": 0.8442622950819673,
        "only": 0.09836065573770492
      }
    },
    "j": {
      "start": 1,
      "middle": 6,
      "end": 3,
      "only": 0,
      "total": 10,
      "ratios": {
        "start": 0.1,
        "middle": 0.6,
        "end": 0.3,
        "only": 0.0
      }
    },
    "k": {
      "start": 1216,
      "middle": 7915,
      "end": 75,
      "only": 5,
      "total": 9211,
      "ratios": {
        "start": 0.1320160677450874,
        "middle": 0.8592986646401042,
        "end": 0.008142438388882858,
        "only": 0.0005428292259255238
      }
    },
    "l": {
      "start": 1245,
      "middle": 2825,
      "end": 5276,
      "only": 167,
      "total": 9513,
      "ratios": {
        "start": 0.13087354146956795,
        "middle": 0.2969620519289393,
        "end": 0.5546094817617997,
        "only": 0.01755492483969305
      }
    },
    "m": {
      "start": 1,
      "middle": 29,
      "end": 906,
      "only": 6,
      "total": 942,
      "ratios": {
        "start": 0.0010615711252653928,
        "middle": 0.03078556263269639,
        "end": 0.9617834394904459,
        "only": 0.006369426751592357
      }
    },
    "n": {
      "start": 0,
      "middle": 68,
      "end": 5756,
      "only": 3,
      "total": 5827,
      "ratios": {
        "start": 0.0,
        "middle": 0.011669812939763172,
        "end": 0.9878153423717179,
        "only": 0.0005148446885189634
      }
    },
    "o": {
      "start": 7044,
      "middle": 14214,
      "end": 1024,
      "only": 147,
      "total": 22429,
      "ratios": {
        "start": 0.31405769316509874,
        "middle": 0.6337331133799992,
        "end": 0.04565517856346694,
        "only": 0.006554014891435195
      }
    },
    "p": {
      "start": 531,
      "middle": 740,
      "end": 27,
      "only": 2,
      "total": 1300,
      "ratios": {
        "start": 0.4084615384615385,
        "middle": 0.5692307692307692,
        "end": 0.02076923076923077,
        "only": 0.0015384615384615385
      }
    },
    "q": {
      "start": 5324,
      "middle": 33,
      "end": 0,
      "only": 0,
      "total": 5357,
      "ratios": {
        "start": 0.9938398357289527,
        "middle": 0.006160164271047228,
        "end": 0.0,
        "only": 0.0
      }
    },
    "r": {
      "start": 346,
      "middle": 1027,
      "end": 5053,
      "only": 139,
      "total": 6565,
      "ratios": {
        "start": 0.0527037319116527,
        "middle": 0.15643564356435644,
        "end": 0.7696877380045697,
        "only": 0.021172886519421175
      }
    },
    "s": {
      "start": 884,
      "middle": 258,
      "end": 821,
      "only": 315,
      "total": 2278,
      "ratios": {
        "start": 0.3880597014925373,
        "middle": 0.11325724319578578,
        "end": 0.3604038630377524,
        "only": 0.1382791922739245
      }
    },
    "t": {
      "start": 979,
      "middle": 4110,
      "end": 57,
      "only": 8,
      "total": 5154,
      "ratios": {
        "start": 0.18994955374466435,
        "middle": 0.7974388824214202,
        "end": 0.011059371362048894,
        "only": 0.0015521924718665113
      }
    },
    "x": {
      "start": 6,
      "middle": 9,
      "end": 7,
      "only": 0,
      "total": 22,
      "ratios": {
        "start": 0.2727272727272727,
        "middle": 0.4090909090909091,
        "end": 0.3181818181818182,
        "only": 0.0
      }
    },
    "y": {
      "start": 1488,
      "middle": 418,
      "end": 13994,
      "only": 261,
      "total": 16161,
      "ratios": {
        "start": 0.09207351030258029,
        "middle": 0.02586473609306355,
        "end": 0.8659117628859601,
        "only": 0.016149990718396137
      }
    }
  },
  "position_totals": {
    "start": 33860,
    "middle": 77838,
    "end": 33860,
    "only": 1158,
    "total": 146716
  },
  "name": "all",
  "description": "All pages",
  "page_count": 226,
  "word_count": 35018
}