{
  "charset": [
    "1",
    "2",
    "3",
    "4",
    "6",
    "7",
    "8",
    "C",
    "F",
    "K",
    "P",
    "S",
    "T",
    "a",
    "d",
    "f",
    "g",
    "j",
    "k",
    "l",
    "m",
    "n",
    "o",
    "p",
    "q",
    "r",
    "s",
    "t",
    "y"
  ],
  "characters": {
    "1": {
      "start": 2,
      "middle": 485,
      "end": 1,
      "only": 1,
      "total": 489,
      "ratios": {
        "start": 0.00408997955010225,
        "middle": 0.9918200408997955,
        "end": 0.002044989775051125,
        "only": 0.002044989775051125
      }
    },
    "2": {
      "start": 1,
      "middle": 392,
      "end": 1,
      "only": 0,
      "total": 394,
      "ratios": {
        "start": 0.0025380710659898475,
        "middle": 0.9949238578680203,
        "end": 0.0025380710659898475,
        "only": 0.0
      }
    },
    "3": {
      "start": 0,
      "middle": 26,
      "end": 1,
      "only": 0,
      "total": 27,
      "ratios": {
        "start": 0.0,
        "middle": 0.9629629629629629,
        "end": 0.037037037037037035,
        "only": 0.0
      }
    },
    "4": {
      "start": 0,
      "middle": 1,
      "end": 0,
      "only": 0,
      "total": 1,
      "ratios": {
        "start": 0.0,
        "middle": 1.0,
        "end": 0.0,
        "only": 0.0
      }
    },
    "6": {
      "start": 6,
      "middle": 2193,
      "end": 0,
      "only": 0,
      "total": 2199,
      "ratios": {
        "start": 0.002728512960436562,
        "middle": 0.9972714870395635,
        "end": 0.0,
        "only": 0.0
      }
    },
    "7": {
      "start": 3,
      "middle": 822,
      "end": 5,
      "only": 0,
      "total": 830,
      "ratios": {
        "start": 0.0036144578313253013,
        "middle": 0.9903614457831326,
        "end": 0.006024096385542169,
        "only": 0.0
      }
    },
    "8": {
      "start": 2,
      "middle": 25,
      "end": 0,
      "only": 0,
      "total": 27,
      "ratios": {
        "start": 0.07407407407407407,
        "middle": 0.9259259259259259,
        "end": 0.0,
        "only": 0.0
      }
    },
    "C": {
      "start": 728,
      "middle": 613,
      "end": 1,
      "only": 2,
      "total": 1344,
      "ratios": {
        "start": 0.5416666666666666,
        "middle": 0.45610119047619047,
        "end": 0.000744047619047619,
        "only": 0.001488095238095238
      }
    },
    "F": {
      "start": 2,
      "middle": 1,
      "end": 0,
      "only": 0,
      "total": 3,
      "ratios": {
        "start": 0.6666666666666666,
        "middle": 0.3333333333333333,
        "end": 0.0,
        "only": 0.0
      }
    },
    "K": {
      "start": 5,
      "middle": 173,
      "end": 0,
      "only": 0,
      "total": 178,
      "ratios": {
        "start": 0.028089887640449437,
        "middle": 0.9719101123595506,
        "end": 0.0,
        "only": 0.0
      }
    },
    "P": {
      "start": 7,
      "middle": 10,
      "end": 0,
      "only": 0,
      "total": 17,
      "ratios": {
        "start": 0.4117647058823529,
        "middle": 0.5882352941176471,
        "end": 0.0,
        "only": 0.0
      }
    },
    "S": {
      "start": 683,
      "middle": 304,
      "end": 0,
      "only": 1,
      "total": 988,
      "ratios": {
        "start": 0.6912955465587044,
        "middle": 0.3076923076923077,
        "end": 0.0,
        "only": 0.0010121457489878543
      }
    },
    "T": {
      "start": 15,
      "middle": 94,
      "end": 0,
      "only": 0,
      "total": 109,
      "ratios": {
        "start": 0.13761467889908258,
        "middle": 0.8623853211009175,
        "end": 0.0,
        "only": 0.0
      }
    },
    "a": {
      "start": 139,
      "middle": 1685,
      "end": 5,
      "only": 0,
      "total": 1829,
      "ratios": {
        "start": 0.07599781301257517,
        "middle": 0.9212684527063969,
        "end": 0.002733734281027884,
        "only": 0.0
      }
    },
    "d": {
      "start": 507,
      "middle": 1981,
      "end": 61,
      "only": 5,
      "total": 2554,
      "ratios": {
        "start": 0.1985121378230227,
        "middle": 0.7756460454189507,
        "end": 0.023884103367267033,
        "only": 0.001957713390759593
      }
    },
    "f": {
      "start": 6,
      "middle": 26,
      "end": 1,
      "only": 0,
      "total": 33,
      "ratios": {
        "start": 0.18181818181818182,
        "middle": 0.7878787878787878,
        "end": 0.030303030303030304,
        "only": 0.0
      }
    },
    "g": {
      "start": 0,
      "middle": 0,
      "end": 7,
      "only": 0,
      "total": 7,
      "ratios": {
        "start": 0.0,
        "middle": 0.0,
        "end": 1.0,
        "only": 0.0
      }
    },
    "j": {
      "start": 0,
      "middle": 1,
      "end": 0,
      "only": 0,
      "total": 1,
      "ratios": {
        "start": 0.0,
        "middle": 1.0,
        "end": 0.0,
        "only": 0.0
      }
    },
    "k": {
      "start": 126,
      "middle": 1738,
      "end": 11,
      "only": 0,
      "total": 1875,
      "ratios": {
        "start": 0.0672,
        "middle": 0.9269333333333334,
        "end": 0.005866666666666667,
        "only": 0.0
      }
    },
    "l": {
      "start": 317,
      "middle": 727,
      "end": 1123,
      "only": 23,
      "total": 2190,
      "ratios": {
        "start": 0.14474885844748858,
        "middle": 0.3319634703196347,
        "end": 0.5127853881278539,
        "only": 0.010502283105022832
      }
    },
    "m": {
      "start": 0,
      "middle": 1,
      "end": 59,
      "only": 0,
      "total": 60,
      "ratios": {
        "start": 0.0,
        "middle": 0.016666666666666666,
        "end": 0.9833333333333333,
        "only": 0.0
      }
    },
    "n": {
      "start": 0,
      "middle": 12,
      "end": 855,
      "only": 0,
      "total": 867,
      "ratios": {
        "start": 0.0,
        "middle": 0.01384083044982699,
        "end": 0.986159169550173,
        "only": 0.0
      }
    },
    "o": {
      "start": 1312,
      "middle": 2318,
      "end": 34,
      "only": 17,
      "total": 3681,
      "ratios": {
        "start": 0.35642488454224397,
        "middle": 0.6297201847324096,
        "end": 0.009236620483564249,
        "only": 0.004618310241782124
      }
    },
    "p": {
      "start": 85,
      "middle": 78,
      "end": 2,
      "only": 0,
      "total": 165,
      "ratios": {
        "start": 0.5151515151515151,
        "middle": 0.4727272727272727,
        "end": 0.012121212121212121,
        "only": 0.0
      }
    },
    "q": {
      "start": 1552,
      "middle": 13,
      "end": 0,
      "only": 0,
      "total": 1565,
      "ratios": {
        "start": 0.9916932907348243,
        "middle": 0.008306709265175719,
        "end": 0.0,
        "only": 0.0
      }
    },
    "r": {
      "start": 108,
      "middle": 126,
      "end": 573,
      "only": 29,
      "total": 836,
      "ratios": {
        "start": 0.1291866028708134,
        "middle": 0.1507177033492823,
        "end": 0.6854066985645934,
        "only": 0.034688995215311005
      }
    },
    "s": {
      "start": 255,
      "middle": 30,
      "end": 74,
      "only": 25,
      "total": 384,
      "ratios": {
        "start": 0.6640625,
        "middle": 0.078125,
        "end": 0.19270833333333334,
        "only": 0.06510416666666667
      }
    },
    "t": {
      "start": 141,
      "middle": 659,
      "end": 1,
      "only": 1,
      "total": 802,
      "ratios": {
        "start": 0.17581047381546136,
        "middle": 0.8216957605985037,
        "end": 0.0012468827930174563,
        "only": 0.0012468827930174563
      }
    },
    "y": {
      "start": 111,
      "middle": 66,
      "end": 3298,
      "only": 42,
      "total": 3517,
      "ratios": {
        "start": 0.031560989479670176,
        "middle": 0.018765993744668752,
        "end": 0.9377310207563264,
        "only": 0.01194199601933466
      }
    }
  },
  "position_totals": {
    "start": 6113,
    "middle": 14600,
    "end": 6113,
    "only": 146,
    "total": 26972
  },
  "name": "biological",
  "description": "Biological section",
  "page_count": 19,
  "word_count": 6259,
  "pages": [
    {
      "folio": "f75r",
      "quire": "M",
      "language": "B",
      "hand": "2",
      "illustration": "B"
    },
    {
      "folio": "f75v",
      "quire": "M",
      "language": "B",
      "hand": "2",
      "illustration": "B"
    },
    {
      "folio": "f76v",
      "quire": "M",
      "language": "B",
      "hand": "2",
      "illustration": "B"
    },
    {
      "folio": "f77r",
      "quire": "M",
      "language": "B",
      "hand": "2",
      "illustration": "B"
    },
    {
      "folio": "f77v",
      "quire": "M",
      "language": "B",
      "hand": "2",
      "illustration": "B"
    },
    {
      "folio": "f78r",
      "quire": "M",
      "language": "B",
      "hand": "2",
      "illustration": "B"
    },
    {
      "folio": "f78v",
      "quire": "M",
      "language": "B",
      "hand": "2",
      "illustration": "B"
    },
    {
      "folio": "f79r",
      "quire": "M",
      "language": "B",
      "hand": "2",
      "illustration": "B"
    },
    {
      "folio": "f79v",
      "quire": "M",
      "language": "B",
      "hand": "2",
      "illustration": "B"
    },
    {
      "folio": "f80r",
      "quire": "M",
      "language": "B",
      "hand": "2",
      "illustration": "B"
    },
    {
      "folio": "f80v",
      "quire": "M",
      "language": "B",
      "hand": "2",
      "illustration": "B"
    },
    {
      "folio": "f81r",
      "quire": "M",
      "language": "B",
      "hand": "2",
      "illustration": "B"
    },
    {
      "folio": "f81v",
      "quire": "M",
      "language": "B",
      "hand": "2",
      "illustration": "B"
    },
    {
      "folio": "f82r",
      "quire": "M",
      "language": "B",
      "hand": "2",
      "illustration": "B"
    },
    {
      "folio": "f82v",
      "quire": "M",
      "language": "B",
      "hand": "2",
      "illustration": "B"
    },
    {
      "folio": "f83r",
      "quire": "M",
      "language": "B",
      "hand": "2",
      "illustration": "B"
    },
    {
      "folio": "f83v",
      "quire": "M",
      "language": "B",
      "hand": "2",
      "illustration": "B"
    },
    {
      "folio": "f84r",
      "quire": "M",
      "language": "B",
      "hand": "2",
      "illustration": "B"
    },
    {
      "folio": "f84v",
      "quire": "M",
      "language": "B",
      "hand": "2",
      "illustration": "B"
    }
  ]
}