{
  "charset": [
    "1",
    "2",
    "3",
    "6",
    "7",
    "8",
    "9",
    "C",
    "F",
    "K",
    "P",
    "S",
    "T",
    "a",
    "d",
    "f",
    "g",
    "j",
    "k",
    "l",
    "m",
    "n",
    "o",
    "p",
    "q",
    "r",
    "s",
    "t",
    "x",
    "y"
  ],
  "characters": {
    "1": {
      "start": 2,
      "middle": 1222,
      "end": 3,
      "only": 0,
      "total": 1227,
      "ratios": {
        "start": 0.0016299918500407497,
        "middle": 0.9959250203748982,
        "end": 0.0024449877750611247,
        "only": 0.0
      }
    },
    "2": {
      "start": 3,
      "middle": 1687,
      "end": 0,
      "only": 0,
      "total": 1690,
      "ratios": {
        "start": 0.0017751479289940828,
        "middle": 0.9982248520710059,
        "end": 0.0,
        "only": 0.0
      }
    },
    "3": {
      "start": 0,
      "middle": 83,
      "end": 1,
      "only": 0,
      "total": 84,
      "ratios": {
        "start": 0.0,
        "middle": 0.9880952380952381,
        "end": 0.011904761904761904,
        "only": 0.0
      }
    },
    "6": {
      "start": 6,
      "middle": 3480,
      "end": 15,
      "only": 2,
      "total": 3503,
      "ratios": {
        "start": 0.0017128175849272054,
        "middle": 0.9934341992577791,
        "end": 0.004282043962318013,
        "only": 0.0005709391949757351
      }
    },
    "7": {
      "start": 10,
      "middle": 1958,
      "end": 8,
      "only": 0,
      "total": 1976,
      "ratios": {
        "start": 0.005060728744939271,
        "middle": 0.9908906882591093,
        "end": 0.004048582995951417,
        "only": 0.0
      }
    },
    "8": {
      "start": 9,
      "middle": 186,
      "end": 1,
      "only": 0,
      "total": 196,
      "ratios": {
        "start": 0.04591836734693878,
        "middle": 0.9489795918367347,
        "end": 0.00510204081632653,
        "only": 0.0
      }
    },
    "9": {
      "start": 0,
      "middle": 2,
      "end": 0,
      "only": 0,
      "total": 2,
      "ratios": {
        "start": 0.0,
        "middle": 1.0,
        "end": 0.0,
        "only": 0.0
      }
    },
    "C": {
      "start": 1943,
      "middle": 1641,
      "end": 3,
      "only": 3,
      "total": 3590,
      "ratios": {
        "start": 0.5412256267409471,
        "middle": 0.45710306406685236,
        "end": 0.0008356545961002785,
        "only": 0.0008356545961002785
      }
    },
    "F": {
      "start": 3,
      "middle": 14,
      "end": 0,
      "only": 0,
      "total": 17,
      "ratios": {
        "start": 0.17647058823529413,
        "middle": 0.8235294117647058,
        "end": 0.0,
        "only": 0.0
      }
    },
    "K": {
      "start": 17,
      "middle": 215,
      "end": 0,
      "only": 0,
      "total": 232,
      "ratios": {
        "start": 0.07327586206896551,
        "middle": 0.9267241379310345,
        "end": 0.0,
        "only": 0.0
      }
    },
    "P": {
      "start": 19,
      "middle": 30,
      "end": 0,
      "only": 0,
      "total": 49,
      "ratios": {
        "start": 0.3877551020408163,
        "middle": 0.6122448979591837,
        "end": 0.0,
        "only": 0.0
      }
    },
    "S": {
      "start": 973,
      "middle": 387,
      "end": 1,
      "only": 5,
      "total": 1366,
      "ratios": {
        "start": 0.712298682284041,
        "middle": 0.28330893118594436,
        "end": 0.0007320644216691069,
        "only": 0.0036603221083455345
      }
    },
    "T": {
      "start": 24,
      "middle": 112,
      "end": 1,
      "only": 0,
      "total": 137,
      "ratios": {
        "start": 0.17518248175182483,
        "middle": 0.8175182481751825,
        "end": 0.0072992700729927005,
        "only": 0.0
      }
    },
    "a": {
      "start": 1113,
      "middle": 4942,
      "end": 17,
      "only": 6,
      "total": 6078,
      "ratios": {
        "start": 0.18311944718657452,
        "middle": 0.8130964132938466,
        "end": 0.002796972688384337,
        "only": 0.0009871668311944718
      }
    },
    "d": {
      "start": 639,
      "middle": 3337,
      "end": 199,
      "only": 3,
      "total": 4178,
      "ratios": {
        "start": 0.15294399234083295,
        "middle": 0.7987075155576832,
        "end": 0.047630445189085685,
        "only": 0.0007180469123982767
      }
    },
    "f": {
      "start": 42,
      "middle": 84,
      "end": 2,
      "only": 1,
      "total": 129,
      "ratios": {
        "start": 0.32558139534883723,
        "middle": 0.6511627906976745,
        "end": 0.015503875968992248,
        "only": 0.007751937984496124
      }
    },
    "g": {
      "start": 1,
      "middle": 2,
      "end": 25,
      "only": 2,
      "total": 30,
      "ratios": {
        "start": 0.03333333333333333,
        "middle": 0.06666666666666667,
        "end": 0.8333333333333334,
        "only": 0.06666666666666667
      }
    },
    "j": {
      "start": 0,
      "middle": 3,
      "end": 0,
      "only": 0,
      "total": 3,
      "ratios": {
        "start": 0.0,
        "middle": 1.0,
        "end": 0.0,
        "only": 0.0
      }
    },
    "k": {
      "start": 417,
      "middle": 3301,
      "end": 23,
      "only": 0,
      "total": 3741,
      "ratios": {
        "start": 0.11146752205292702,
        "middle": 0.8823843892007485,
        "end": 0.006148088746324512,
        "only": 0.0
      }
    },
    "l": {
      "start": 735,
      "middle": 1090,
      "end": 1696,
      "only": 106,
      "total": 3627,
      "ratios": {
        "start": 0.20264681555004135,
        "middle": 0.3005238489109457,
        "end": 0.46760408050730634,
        "only": 0.029225255031706646
      }
    },
    "m": {
      "start": 0,
      "middle": 15,
      "end": 414,
      "only": 2,
      "total": 431,
      "ratios": {
        "start": 0.0,
        "middle": 0.03480278422273782,
        "end": 0.9605568445475638,
        "only": 0.004640371229698376
      }
    },
    "n": {
      "start": 0,
      "middle": 34,
      "end": 2463,
      "only": 0,
      "total": 2497,
      "ratios": {
        "start": 0.0,
        "middle": 0.013616339607529036,
        "end": 0.9863836603924709,
        "only": 0.0
      }
    },
    "o": {
      "start": 2982,
      "middle": 4488,
      "end": 325,
      "only": 44,
      "total": 7839,
      "ratios": {
        "start": 0.38040566398775355,
        "middle": 0.5725220053578263,
        "end": 0.04145936981757877,
        "only": 0.005612960836841434
      }
    },
    "p": {
      "start": 258,
      "middle": 387,
      "end": 7,
      "only": 1,
      "total": 653,
      "ratios": {
        "start": 0.39509954058192953,
        "middle": 0.5926493108728943,
        "end": 0.010719754977029096,
        "only": 0.0015313935681470138
      }
    },
    "q": {
      "start": 2110,
      "middle": 12,
      "end": 0,
      "only": 0,
      "total": 2122,
      "ratios": {
        "start": 0.9943449575871819,
        "middle": 0.005655042412818096,
        "end": 0.0,
        "only": 0.0
      }
    },
    "r": {
      "start": 174,
      "middle": 464,
      "end": 1996,
      "only": 39,
      "total": 2673,
      "ratios": {
        "start": 0.06509539842873176,
        "middle": 0.17358772914328469,
        "end": 0.7467265245043023,
        "only": 0.014590347923681257
      }
    },
    "s": {
      "start": 226,
      "middle": 79,
      "end": 265,
      "only": 41,
      "total": 611,
      "ratios": {
        "start": 0.3698854337152209,
        "middle": 0.12929623567921442,
        "end": 0.4337152209492635,
        "only": 0.06710310965630115
      }
    },
    "t": {
      "start": 339,
      "middle": 1809,
      "end": 17,
      "only": 0,
      "total": 2165,
      "ratios": {
        "start": 0.15658198614318708,
        "middle": 0.8355658198614319,
        "end": 0.007852193995381063,
        "only": 0.0
      }
    },
    "x": {
      "start": 1,
      "middle": 7,
      "end": 6,
      "only": 0,
      "total": 14,
      "ratios": {
        "start": 0.07142857142857142,
        "middle": 0.5,
        "end": 0.42857142857142855,
        "only": 0.0
      }
    },
    "y": {
      "start": 506,
      "middle": 103,
      "end": 5064,
      "only": 86,
      "total": 5759,
      "ratios": {
        "start": 0.08786247612432714,
        "middle": 0.017885049487758292,
        "end": 0.8793193262719222,
        "only": 0.01493314811599236
      }
    }
  },
  "position_totals": {
    "start": 12552,
    "middle": 31174,
    "end": 12552,
    "only": 341,
    "total": 56619
  },
  "name": "hand_3",
  "description": "Hand 3",
  "page_count": 33,
  "word_count": 12893
}