{
  "charset": [
    "1",
    "2",
    "3",
    "4",
    "6",
    "7",
    "8",
    "C",
    "F",
    "K",
    "P",
    "S",
    "T",
    "a",
    "d",
    "f",
    "g",
    "j",
    "k",
    "l",
    "m",
    "n",
    "o",
    "p",
    "q",
    "r",
    "s",
    "t",
    "x",
    "y"
  ],
  "characters": {
    "1": {
      "start": 2,
      "middle": 681,
      "end": 1,
      "only": 1,
      "total": 685,
      "ratios": {
        "start": 0.00291970802919708,
        "middle": 0.9941605839416059,
        "end": 0.00145985401459854,
        "only": 0.00145985401459854
      }
    },
    "2": {
      "start": 1,
      "middle": 735,
      "end": 2,
      "only": 0,
      "total": 738,
      "ratios": {
        "start": 0.0013550135501355014,
        "middle": 0.9959349593495935,
        "end": 0.0027100271002710027,
        "only": 0.0
      }
    },
    "3": {
      "start": 0,
      "middle": 40,
      "end": 1,
      "only": 0,
      "total": 41,
      "ratios": {
        "start": 0.0,
        "middle": 0.975609756097561,
        "end": 0.024390243902439025,
        "only": 0.0
      }
    },
    "4": {
      "start": 0,
      "middle": 1,
      "end": 0,
      "only": 0,
      "total": 1,
      "ratios": {
        "start": 0.0,
        "middle": 1.0,
        "end": 0.0,
        "only": 0.0
      }
    },
    "6": {
      "start": 11,
      "middle": 3248,
      "end": 10,
      "only": 0,
      "total": 3269,
      "ratios": {
        "start": 0.00336494340776996,
        "middle": 0.9935760171306209,
        "end": 0.0030590394616090547,
        "only": 0.0
      }
    },
    "7": {
      "start": 6,
      "middle": 1103,
      "end": 13,
      "only": 0,
      "total": 1122,
      "ratios": {
        "start": 0.0053475935828877,
        "middle": 0.9830659536541889,
        "end": 0.011586452762923352,
        "only": 0.0
      }
    },
    "8": {
      "start": 5,
      "middle": 42,
      "end": 0,
      "only": 1,
      "total": 48,
      "ratios": {
        "start": 0.10416666666666667,
        "middle": 0.875,
        "end": 0.0,
        "only": 0.020833333333333332
      }
    },
    "C": {
      "start": 1284,
      "middle": 980,
      "end": 1,
      "only": 3,
      "total": 2268,
      "ratios": {
        "start": 0.5661375661375662,
        "middle": 0.43209876543209874,
        "end": 0.0004409171075837742,
        "only": 0.0013227513227513227
      }
    },
    "F": {
      "start": 4,
      "middle": 7,
      "end": 0,
      "only": 0,
      "total": 11,
      "ratios": {
        "start": 0.36363636363636365,
        "middle": 0.6363636363636364,
        "end": 0.0,
        "only": 0.0
      }
    },
    "K": {
      "start": 19,
      "middle": 272,
      "end": 1,
      "only": 0,
      "total": 292,
      "ratios": {
        "start": 0.06506849315068493,
        "middle": 0.9315068493150684,
        "end": 0.003424657534246575,
        "only": 0.0
      }
    },
    "P": {
      "start": 14,
      "middle": 17,
      "end": 0,
      "only": 0,
      "total": 31,
      "ratios": {
        "start": 0.45161290322580644,
        "middle": 0.5483870967741935,
        "end": 0.0,
        "only": 0.0
      }
    },
    "S": {
      "start": 972,
      "middle": 395,
      "end": 3,
      "only": 3,
      "total": 1373,
      "ratios": {
        "start": 0.7079388201019665,
        "middle": 0.2876911871813547,
        "end": 0.0021849963583394027,
        "only": 0.0021849963583394027
      }
    },
    "T": {
      "start": 35,
      "middle": 132,
      "end": 0,
      "only": 0,
      "total": 167,
      "ratios": {
        "start": 0.20958083832335328,
        "middle": 0.7904191616766467,
        "end": 0.0,
        "only": 0.0
      }
    },
    "a": {
      "start": 396,
      "middle": 2716,
      "end": 9,
      "only": 1,
      "total": 3122,
      "ratios": {
        "start": 0.1268417680973735,
        "middle": 0.8699551569506726,
        "end": 0.0028827674567584883,
        "only": 0.00032030749519538755
      }
    },
    "d": {
      "start": 827,
      "middle": 3080,
      "end": 128,
      "only": 6,
      "total": 4041,
      "ratios": {
        "start": 0.2046523137837169,
        "middle": 0.7621875773323434,
        "end": 0.03167532788913635,
        "only": 0.0014847809948032665
      }
    },
    "f": {
      "start": 20,
      "middle": 71,
      "end": 6,
      "only": 0,
      "total": 97,
      "ratios": {
        "start": 0.20618556701030927,
        "middle": 0.7319587628865979,
        "end": 0.061855670103092786,
        "only": 0.0
      }
    },
    "g": {
      "start": 0,
      "middle": 0,
      "end": 19,
      "only": 1,
      "total": 20,
      "ratios": {
        "start": 0.0,
        "middle": 0.0,
        "end": 0.95,
        "only": 0.05
      }
    },
    "j": {
      "start": 0,
      "middle": 1,
      "end": 0,
      "only": 0,
      "total": 1,
      "ratios": {
        "start": 0.0,
        "middle": 1.0,
        "end": 0.0,
        "only": 0.0
      }
    },
    "k": {
      "start": 261,
      "middle": 2559,
      "end": 25,
      "only": 1,
      "total": 2846,
      "ratios": {
        "start": 0.09170765987350668,
        "middle": 0.899156711173577,
        "end": 0.008784258608573436,
        "only": 0.00035137034434293746
      }
    },
    "l": {
      "start": 402,
      "middle": 1022,
      "end": 1432,
      "only": 30,
      "total": 2886,
      "ratios": {
        "start": 0.1392931392931393,
        "middle": 0.3541233541233541,
        "end": 0.4961884961884962,
        "only": 0.010395010395010396
      }
    },
    "m": {
      "start": 0,
      "middle": 4,
      "end": 159,
      "only": 3,
      "total": 166,
      "ratios": {
        "start": 0.0,
        "middle": 0.024096385542168676,
        "end": 0.9578313253012049,
        "only": 0.018072289156626505
      }
    },
    "n": {
      "start": 0,
      "middle": 14,
      "end": 1328,
      "only": 0,
      "total": 1342,
      "ratios": {
        "start": 0.0,
        "middle": 0.010432190760059613,
        "end": 0.9895678092399404,
        "only": 0.0
      }
    },
    "o": {
      "start": 2053,
      "middle": 3220,
      "end": 83,
      "only": 33,
      "total": 5389,
      "ratios": {
        "start": 0.3809612172944888,
        "middle": 0.5975134533308591,
        "end": 0.015401744293932084,
        "only": 0.006123585080719985
      }
    },
    "p": {
      "start": 137,
      "middle": 151,
      "end": 8,
      "only": 1,
      "total": 297,
      "ratios": {
        "start": 0.4612794612794613,
        "middle": 0.5084175084175084,
        "end": 0.026936026936026935,
        "only": 0.003367003367003367
      }
    },
    "q": {
      "start": 1926,
      "middle": 13,
      "end": 0,
      "only": 0,
      "total": 1939,
      "ratios": {
        "start": 0.9932955131511089,
        "middle": 0.006704486848891181,
        "end": 0.0,
        "only": 0.0
      }
    },
    "r": {
      "start": 117,
      "middle": 208,
      "end": 1099,
      "only": 40,
      "total": 1464,
      "ratios": {
        "start": 0.07991803278688525,
        "middle": 0.14207650273224043,
        "end": 0.7506830601092896,
        "only": 0.0273224043715847
      }
    },
    "s": {
      "start": 317,
      "middle": 47,
      "end": 170,
      "only": 64,
      "total": 598,
      "ratios": {
        "start": 0.5301003344481605,
        "middle": 0.07859531772575251,
        "end": 0.2842809364548495,
        "only": 0.10702341137123746
      }
    },
    "t": {
      "start": 243,
      "middle": 970,
      "end": 9,
      "only": 1,
      "total": 1223,
      "ratios": {
        "start": 0.19869174161896974,
        "middle": 0.7931316434995912,
        "end": 0.007358953393295176,
        "only": 0.0008176614881439084
      }
    },
    "x": {
      "start": 4,
      "middle": 0,
      "end": 1,
      "only": 0,
      "total": 5,
      "ratios": {
        "start": 0.8,
        "middle": 0.0,
        "end": 0.2,
        "only": 0.0
      }
    },
    "y": {
      "start": 322,
      "middle": 114,
      "end": 4870,
      "only": 73,
      "total": 5379,
      "ratios": {
        "start": 0.059862427960587467,
        "middle": 0.021193530395984383,
        "end": 0.9053727458635434,
        "only": 0.013571295779884737
      }
    }
  },
  "position_totals": {
    "start": 9378,
    "middle": 21843,
    "end": 9378,
    "only": 262,
    "total": 40861
  },
  "name": "hand_2",
  "description": "Hand 2",
  "page_count": 46,
  "word_count": 9640
}