{
  "charset": [
    "1",
    "2",
    "6",
    "7",
    "8",
    "C",
    "F",
    "K",
    "P",
    "S",
    "T",
    "a",
    "d",
    "f",
    "g",
    "k",
    "l",
    "m",
    "n",
    "o",
    "p",
    "q",
    "r",
    "s",
    "t",
    "x",
    "y"
  ],
  "characters": {
    "1": {
      "start": 0,
      "middle": 54,
      "end": 0,
      "only": 1,
      "total": 55,
      "ratios": {
        "start": 0.0,
        "middle": 0.9818181818181818,
        "end": 0.0,
        "only": 0.01818181818181818
      }
    },
    "2": {
      "start": 0,
      "middle": 117,
      "end": 0,
      "only": 0,
      "total": 117,
      "ratios": {
        "start": 0.0,
        "middle": 1.0,
        "end": 0.0,
        "only": 0.0
      }
    },
    "6": {
      "start": 2,
      "middle": 260,
      "end": 0,
      "only": 0,
      "total": 262,
      "ratios": {
        "start": 0.007633587786259542,
        "middle": 0.9923664122137404,
        "end": 0.0,
        "only": 0.0
      }
    },
    "7": {
      "start": 1,
      "middle": 70,
      "end": 1,
      "only": 0,
      "total": 72,
      "ratios": {
        "start": 0.013888888888888888,
        "middle": 0.9722222222222222,
        "end": 0.013888888888888888,
        "only": 0.0
      }
    },
    "8": {
      "start": 1,
      "middle": 2,
      "end": 0,
      "only": 0,
      "total": 3,
      "ratios": {
        "start": 0.3333333333333333,
        "middle": 0.6666666666666666,
        "end": 0.0,
        "only": 0.0
      }
    },
    "C": {
      "start": 166,
      "middle": 105,
      "end": 1,
      "only": 0,
      "total": 272,
      "ratios": {
        "start": 0.6102941176470589,
        "middle": 0.3860294117647059,
        "end": 0.003676470588235294,
        "only": 0.0
      }
    },
    "F": {
      "start": 1,
      "middle": 1,
      "end": 0,
      "only": 0,
      "total": 2,
      "ratios": {
        "start": 0.5,
        "middle": 0.5,
        "end": 0.0,
        "only": 0.0
      }
    },
    "K": {
      "start": 0,
      "middle": 20,
      "end": 0,
      "only": 0,
      "total": 20,
      "ratios": {
        "start": 0.0,
        "middle": 1.0,
        "end": 0.0,
        "only": 0.0
      }
    },
    "P": {
      "start": 2,
      "middle": 2,
      "end": 0,
      "only": 0,
      "total": 4,
      "ratios": {
        "start": 0.5,
        "middle": 0.5,
        "end": 0.0,
        "only": 0.0
      }
    },
    "S": {
      "start": 101,
      "middle": 51,
      "end": 1,
      "only": 0,
      "total": 153,
      "ratios": {
        "start": 0.6601307189542484,
        "middle": 0.3333333333333333,
        "end": 0.006535947712418301,
        "only": 0.0
      }
    },
    "T": {
      "start": 1,
      "middle": 16,
      "end": 0,
      "only": 0,
      "total": 17,
      "ratios": {
        "start": 0.058823529411764705,
        "middle": 0.9411764705882353,
        "end": 0.0,
        "only": 0.0
      }
    },
    "a": {
      "start": 34,
      "middle": 374,
      "end": 1,
      "only": 0,
      "total": 409,
      "ratios": {
        "start": 0.08312958435207823,
        "middle": 0.9144254278728606,
        "end": 0.0024449877750611247,
        "only": 0.0
      }
    },
    "d": {
      "start": 104,
      "middle": 314,
      "end": 23,
      "only": 0,
      "total": 441,
      "ratios": {
        "start": 0.23582766439909297,
        "middle": 0.7120181405895691,
        "end": 0.05215419501133787,
        "only": 0.0
      }
    },
    "f": {
      "start": 6,
      "middle": 20,
      "end": 3,
      "only": 0,
      "total": 29,
      "ratios": {
        "start": 0.20689655172413793,
        "middle": 0.6896551724137931,
        "end": 0.10344827586206896,
        "only": 0.0
      }
    },
    "g": {
      "start": 0,
      "middle": 0,
      "end": 1,
      "only": 0,
      "total": 1,
      "ratios": {
        "start": 0.0,
        "middle": 0.0,
        "end": 1.0,
        "only": 0.0
      }
    },
    "k": {
      "start": 42,
      "middle": 267,
      "end": 3,
      "only": 2,
      "total": 314,
      "ratios": {
        "start": 0.1337579617834395,
        "middle": 0.8503184713375797,
        "end": 0.009554140127388535,
        "only": 0.006369426751592357
      }
    },
    "l": {
      "start": 24,
      "middle": 80,
      "end": 121,
      "only": 1,
      "total": 226,
      "ratios": {
        "start": 0.10619469026548672,
        "middle": 0.35398230088495575,
        "end": 0.5353982300884956,
        "only": 0.004424778761061947
      }
    },
    "m": {
      "start": 0,
      "middle": 1,
      "end": 17,
      "only": 0,
      "total": 18,
      "ratios": {
        "start": 0.0,
        "middle": 0.05555555555555555,
        "end": 0.9444444444444444,
        "only": 0.0
      }
    },
    "n": {
      "start": 0,
      "middle": 0,
      "end": 151,
      "only": 0,
      "total": 151,
      "ratios": {
        "start": 0.0,
        "middle": 0.0,
        "end": 1.0,
        "only": 0.0
      }
    },
    "o": {
      "start": 207,
      "middle": 335,
      "end": 13,
      "only": 1,
      "total": 556,
      "ratios": {
        "start": 0.3723021582733813,
        "middle": 0.6025179856115108,
        "end": 0.023381294964028777,
        "only": 0.0017985611510791368
      }
    },
    "p": {
      "start": 11,
      "middle": 23,
      "end": 1,
      "only": 0,
      "total": 35,
      "ratios": {
        "start": 0.3142857142857143,
        "middle": 0.6571428571428571,
        "end": 0.02857142857142857,
        "only": 0.0
      }
    },
    "q": {
      "start": 124,
      "middle": 0,
      "end": 0,
      "only": 0,
      "total": 124,
      "ratios": {
        "start": 1.0,
        "middle": 0.0,
        "end": 0.0,
        "only": 0.0
      }
    },
    "r": {
      "start": 4,
      "middle": 26,
      "end": 150,
      "only": 2,
      "total": 182,
      "ratios": {
        "start": 0.02197802197802198,
        "middle": 0.14285714285714285,
        "end": 0.8241758241758241,
        "only": 0.01098901098901099
      }
    },
    "s": {
      "start": 11,
      "middle": 6,
      "end": 23,
      "only": 4,
      "total": 44,
      "ratios": {
        "start": 0.25,
        "middle": 0.13636363636363635,
        "end": 0.5227272727272727,
        "only": 0.09090909090909091
      }
    },
    "t": {
      "start": 42,
      "middle": 114,
      "end": 0,
      "only": 0,
      "total": 156,
      "ratios": {
        "start": 0.2692307692307692,
        "middle": 0.7307692307692307,
        "end": 0.0,
        "only": 0.0
      }
    },
    "x": {
      "start": 1,
      "middle": 2,
      "end": 0,
      "only": 0,
      "total": 3,
      "ratios": {
        "start": 0.3333333333333333,
        "middle": 0.6666666666666666,
        "end": 0.0,
        "only": 0.0
      }
    },
    "y": {
      "start": 40,
      "middle": 16,
      "end": 415,
      "only": 7,
      "total": 478,
      "ratios": {
        "start": 0.08368200836820083,
        "middle": 0.03347280334728033,
        "end": 0.8682008368200836,
        "only": 0.014644351464435146
      }
    }
  },
  "position_totals": {
    "start": 925,
    "middle": 2276,
    "end": 925,
    "only": 18,
    "total": 4144
  },
  "name": "hand_5",
  "description": "Hand 5",
  "page_count": 8,
  "word_count": 943,
  "pages": [
    {
      "folio": "f66r",
      "quire": "H",
      "language": "B",
      "hand": "5",
      "illustration": "T"
    },
    {
      "folio": "f66v",
      "quire": "H",
      "language": "B",
      "hand": "5",
      "illustration": "H"
    },
    {
      "folio": "f94r",
      "quire": "Q",
      "language": "B",
      "hand": "5",
      "illustration": "H"
    },
    {
      "folio": "f94v",
      "quire": "Q",
      "language": "B",
      "hand": "5",
      "illustration": "H"
    },
    {
      "folio": "f95r1",
      "quire": "Q",
      "language": "B",
      "hand": "5",
      "illustration": "H"
    },
    {
      "folio": "f95r2",
      "quire": "Q",
      "language": "B",
      "hand": "5",
      "illustration": "H"
    },
    {
      "folio": "f95v2",
      "quire": "Q",
      "language": "B",
      "hand": "5",
      "illustration": "H"
    },
    {
      "folio": "f95v1",
      "quire": "Q",
      "language": "B",
      "hand": "5",
      "illustration": "H"
    }
  ]
}