{
  "charset": [
    "1",
    "2",
    "3",
    "6",
    "7",
    "8",
    "C",
    "F",
    "K",
    "P",
    "S",
    "T",
    "a",
    "d",
    "f",
    "g",
    "k",
    "l",
    "m",
    "n",
    "o",
    "p",
    "q",
    "r",
    "s",
    "t",
    "x",
    "y"
  ],
  "characters": {
    "1": {
      "start": 0,
      "middle": 182,
      "end": 0,
      "only": 0,
      "total": 182,
      "ratios": {
        "start": 0.0,
        "middle": 1.0,
        "end": 0.0,
        "only": 0.0
      }
    },
    "2": {
      "start": 0,
      "middle": 406,
      "end": 1,
      "only": 0,
      "total": 407,
      "ratios": {
        "start": 0.0,
        "middle": 0.9975429975429976,
        "end": 0.002457002457002457,
        "only": 0.0
      }
    },
    "3": {
      "start": 0,
      "middle": 13,
      "end": 0,
      "only": 0,
      "total": 13,
      "ratios": {
        "start": 0.0,
        "middle": 1.0,
        "end": 0.0,
        "only": 0.0
      }
    },
    "6": {
      "start": 7,
      "middle": 1000,
      "end": 10,
      "only": 0,
      "total": 1017,
      "ratios": {
        "start": 0.00688298918387414,
        "middle": 0.983284169124877,
        "end": 0.00983284169124877,
        "only": 0.0
      }
    },
    "7": {
      "start": 4,
      "middle": 266,
      "end": 9,
      "only": 0,
      "total": 279,
      "ratios": {
        "start": 0.014336917562724014,
        "middle": 0.953405017921147,
        "end": 0.03225806451612903,
        "only": 0.0
      }
    },
    "8": {
      "start": 4,
      "middle": 15,
      "end": 0,
      "only": 1,
      "total": 20,
      "ratios": {
        "start": 0.2,
        "middle": 0.75,
        "end": 0.0,
        "only": 0.05
      }
    },
    "C": {
      "start": 585,
      "middle": 392,
      "end": 1,
      "only": 1,
      "total": 979,
      "ratios": {
        "start": 0.5975485188968335,
        "middle": 0.4004085801838611,
        "end": 0.0010214504596527069,
        "only": 0.0010214504596527069
      }
    },
    "F": {
      "start": 2,
      "middle": 6,
      "end": 0,
      "only": 0,
      "total": 8,
      "ratios": {
        "start": 0.25,
        "middle": 0.75,
        "end": 0.0,
        "only": 0.0
      }
    },
    "K": {
      "start": 14,
      "middle": 93,
      "end": 0,
      "only": 0,
      "total": 107,
      "ratios": {
        "start": 0.1308411214953271,
        "middle": 0.8691588785046729,
        "end": 0.0,
        "only": 0.0
      }
    },
    "P": {
      "start": 8,
      "middle": 4,
      "end": 0,
      "only": 0,
      "total": 12,
      "ratios": {
        "start": 0.6666666666666666,
        "middle": 0.3333333333333333,
        "end": 0.0,
        "only": 0.0
      }
    },
    "S": {
      "start": 263,
      "middle": 102,
      "end": 3,
      "only": 2,
      "total": 370,
      "ratios": {
        "start": 0.7108108108108108,
        "middle": 0.2756756756756757,
        "end": 0.008108108108108109,
        "only": 0.005405405405405406
      }
    },
    "T": {
      "start": 19,
      "middle": 37,
      "end": 0,
      "only": 0,
      "total": 56,
      "ratios": {
        "start": 0.3392857142857143,
        "middle": 0.6607142857142857,
        "end": 0.0,
        "only": 0.0
      }
    },
    "a": {
      "start": 248,
      "middle": 1166,
      "end": 3,
      "only": 1,
      "total": 1418,
      "ratios": {
        "start": 0.17489421720733428,
        "middle": 0.8222849083215797,
        "end": 0.0021156558533145277,
        "only": 0.0007052186177715092
      }
    },
    "d": {
      "start": 347,
      "middle": 1145,
      "end": 70,
      "only": 1,
      "total": 1563,
      "ratios": {
        "start": 0.2220089571337172,
        "middle": 0.7325655790147153,
        "end": 0.044785668586052464,
        "only": 0.0006397952655150352
      }
    },
    "f": {
      "start": 18,
      "middle": 59,
      "end": 7,
      "only": 0,
      "total": 84,
      "ratios": {
        "start": 0.21428571428571427,
        "middle": 0.7023809523809523,
        "end": 0.08333333333333333,
        "only": 0.0
      }
    },
    "g": {
      "start": 0,
      "middle": 0,
      "end": 13,
      "only": 1,
      "total": 14,
      "ratios": {
        "start": 0.0,
        "middle": 0.0,
        "end": 0.9285714285714286,
        "only": 0.07142857142857142
      }
    },
    "k": {
      "start": 157,
      "middle": 873,
      "end": 17,
      "only": 3,
      "total": 1050,
      "ratios": {
        "start": 0.14952380952380953,
        "middle": 0.8314285714285714,
        "end": 0.01619047619047619,
        "only": 0.002857142857142857
      }
    },
    "l": {
      "start": 56,
      "middle": 278,
      "end": 315,
      "only": 3,
      "total": 652,
      "ratios": {
        "start": 0.08588957055214724,
        "middle": 0.4263803680981595,
        "end": 0.4831288343558282,
        "only": 0.004601226993865031
      }
    },
    "m": {
      "start": 0,
      "middle": 4,
      "end": 113,
      "only": 3,
      "total": 120,
      "ratios": {
        "start": 0.0,
        "middle": 0.03333333333333333,
        "end": 0.9416666666666667,
        "only": 0.025
      }
    },
    "n": {
      "start": 0,
      "middle": 1,
      "end": 519,
      "only": 0,
      "total": 520,
      "ratios": {
        "start": 0.0,
        "middle": 0.0019230769230769232,
        "end": 0.9980769230769231,
        "only": 0.0
      }
    },
    "o": {
      "start": 803,
      "middle": 936,
      "end": 46,
      "only": 16,
      "total": 1801,
      "ratios": {
        "start": 0.4458634092171016,
        "middle": 0.5197112715158245,
        "end": 0.025541365907828985,
        "only": 0.008883953359244865
      }
    },
    "p": {
      "start": 53,
      "middle": 77,
      "end": 4,
      "only": 1,
      "total": 135,
      "ratios": {
        "start": 0.3925925925925926,
        "middle": 0.5703703703703704,
        "end": 0.02962962962962963,
        "only": 0.007407407407407408
      }
    },
    "q": {
      "start": 341,
      "middle": 0,
      "end": 0,
      "only": 0,
      "total": 341,
      "ratios": {
        "start": 1.0,
        "middle": 0.0,
        "end": 0.0,
        "only": 0.0
      }
    },
    "r": {
      "start": 4,
      "middle": 87,
      "end": 570,
      "only": 8,
      "total": 669,
      "ratios": {
        "start": 0.005979073243647235,
        "middle": 0.13004484304932734,
        "end": 0.852017937219731,
        "only": 0.01195814648729447
      }
    },
    "s": {
      "start": 47,
      "middle": 22,
      "end": 102,
      "only": 42,
      "total": 213,
      "ratios": {
        "start": 0.22065727699530516,
        "middle": 0.10328638497652583,
        "end": 0.4788732394366197,
        "only": 0.19718309859154928
      }
    },
    "t": {
      "start": 138,
      "middle": 363,
      "end": 7,
      "only": 0,
      "total": 508,
      "ratios": {
        "start": 0.27165354330708663,
        "middle": 0.7145669291338582,
        "end": 0.013779527559055118,
        "only": 0.0
      }
    },
    "x": {
      "start": 5,
      "middle": 0,
      "end": 1,
      "only": 0,
      "total": 6,
      "ratios": {
        "start": 0.8333333333333334,
        "middle": 0.0,
        "end": 0.16666666666666666,
        "only": 0.0
      }
    },
    "y": {
      "start": 234,
      "middle": 56,
      "end": 1546,
      "only": 30,
      "total": 1866,
      "ratios": {
        "start": 0.12540192926045016,
        "middle": 0.030010718113612004,
        "end": 0.8285101822079314,
        "only": 0.01607717041800643
      }
    }
  },
  "position_totals": {
    "start": 3357,
    "middle": 7583,
    "end": 3357,
    "only": 113,
    "total": 14410
  },
  "name": "herbal_lang_b",
  "description": "Herbal section, Language B",
  "page_count": 32,
  "word_count": 3470,
  "pages": [
    {
      "folio": "f26r",
      "quire": "D",
      "language": "B",
      "hand": "2",
      "illustration": "H"
    },
    {
      "folio": "f26v",
      "quire": "D",
      "language": "B",
      "hand": "2",
      "illustration": "H"
    },
    {
      "folio": "f31r",
      "quire": "D",
      "language": "B",
      "hand": "2",
      "illustration": "H"
    },
    {
      "folio": "f31v",
      "quire": "D",
      "language": "B",
      "hand": "2",
      "illustration": "H"
    },
    {
      "folio": "f33r",
      "quire": "E",
      "language": "B",
      "hand": "2",
      "illustration": "H"
    },
    {
      "folio": "f33v",
      "quire": "E",
      "language": "B",
      "hand": "2",
      "illustration": "H"
    },
    {
      "folio": "f34r",
      "quire": "E",
      "language": "B",
      "hand": "2",
      "illustration": "H"
    },
    {
      "folio": "f34v",
      "quire": "E",
      "language": "B",
      "hand": "2",
      "illustration": "H"
    },
    {
      "folio": "f39r",
      "quire": "E",
      "language": "B",
      "hand": "2",
      "illustration": "H"
    },
    {
      "folio": "f39v",
      "quire": "E",
      "language": "B",
      "hand": "2",
      "illustration": "H"
    },
    {
      "folio": "f40r",
      "quire": "E",
      "language": "B",
      "hand": "2",
      "illustration": "H"
    },
    {
      "folio": "f40v",
      "quire": "E",
      "language": "B",
      "hand": "2",
      "illustration": "H"
    },
    {
      "folio": "f41r",
      "quire": "F",
      "language": "B",
      "hand": "2",
      "illustration": "H"
    },
    {
      "folio": "f41v",
      "quire": "F",
      "language": "B",
      "hand": "2",
      "illustration": "H"
    },
    {
      "folio": "f43r",
      "quire": "F",
      "language": "B",
      "hand": "2",
      "illustration": "H"
    },
    {
      "folio": "f43v",
      "quire": "F",
      "language": "B",
      "hand": "2",
      "illustration": "H"
    },
    {
      "folio": "f46r",
      "quire": "F",
      "language": "B",
      "hand": "2",
      "illustration": "H"
    },
    {
      "folio": "f46v",
      "quire": "F",
      "language": "B",
      "hand": "2",
      "illustration": "H"
    },
    {
      "folio": "f48r",
      "quire": "F",
      "language": "B",
      "hand": "2",
      "illustration": "H"
    },
    {
      "folio": "f48v",
      "quire": "F",
      "language": "B",
      "hand": "2",
      "illustration": "H"
    },
    {
      "folio": "f50r",
      "quire": "G",
      "language": "B",
      "hand": "2",
      "illustration": "H"
    },
    {
      "folio": "f50v",
      "quire": "G",
      "language": "B",
      "hand": "2",
      "illustration": "H"
    },
    {
      "folio": "f55r",
      "quire": "G",
      "language": "B",
      "hand": "2",
      "illustration": "H"
    },
    {
      "folio": "f55v",
      "quire": "G",
      "language": "B",
      "hand": "2",
      "illustration": "H"
    },
    {
      "folio": "f57r",
      "quire": "H",
      "language": "B",
      "hand": "2",
      "illustration": "H"
    },
    {
      "folio": "f66v",
      "quire": "H",
      "language": "B",
      "hand": "5",
      "illustration": "H"
    },
    {
      "folio": "f94r",
      "quire": "Q",
      "language": "B",
      "hand": "5",
      "illustration": "H"
    },
    {
      "folio": "f94v",
      "quire": "Q",
      "language": "B",
      "hand": "5",
      "illustration": "H"
    },
    {
      "folio": "f95r1",
      "quire": "Q",
      "language": "B",
      "hand": "5",
      "illustration": "H"
    },
    {
      "folio": "f95r2",
      "quire": "Q",
      "language": "B",
      "hand": "5",
      "illustration": "H"
    },
    {
      "folio": "f95v2",
      "quire": "Q",
      "language": "B",
      "hand": "5",
      "illustration": "H"
    },
    {
      "folio": "f95v1",
      "quire": "Q",
      "language": "B",
      "hand": "5",
      "illustration": "H"
    }
  ]
}