{
  "charset": [
    "1",
    "2",
    "3",
    "6",
    "7",
    "8",
    "9",
    "C",
    "F",
    "K",
    "P",
    "S",
    "T",
    "a",
    "d",
    "f",
    "g",
    "j",
    "k",
    "l",
    "m",
    "n",
    "o",
    "p",
    "q",
    "r",
    "s",
    "t",
    "y"
  ],
  "characters": {
    "1": {
      "start": 5,
      "middle": 449,
      "end": 6,
      "only": 0,
      "total": 460,
      "ratios": {
        "start": 0.010869565217391304,
        "middle": 0.9760869565217392,
        "end": 0.013043478260869565,
        "only": 0.0
      }
    },
    "2": {
      "start": 0,
      "middle": 1498,
      "end": 1,
      "only": 0,
      "total": 1499,
      "ratios": {
        "start": 0.0,
        "middle": 0.9993328885923949,
        "end": 0.00066711140760507,
        "only": 0.0
      }
    },
    "3": {
      "start": 1,
      "middle": 43,
      "end": 0,
      "only": 0,
      "total": 44,
      "ratios": {
        "start": 0.022727272727272728,
        "middle": 0.9772727272727273,
        "end": 0.0,
        "only": 0.0
      }
    },
    "6": {
      "start": 30,
      "middle": 1921,
      "end": 29,
      "only": 2,
      "total": 1982,
      "ratios": {
        "start": 0.015136226034308779,
        "middle": 0.9692230070635721,
        "end": 0.014631685166498487,
        "only": 0.0010090817356205853
      }
    },
    "7": {
      "start": 12,
      "middle": 687,
      "end": 9,
      "only": 0,
      "total": 708,
      "ratios": {
        "start": 0.01694915254237288,
        "middle": 0.9703389830508474,
        "end": 0.012711864406779662,
        "only": 0.0
      }
    },
    "8": {
      "start": 7,
      "middle": 76,
      "end": 8,
      "only": 0,
      "total": 91,
      "ratios": {
        "start": 0.07692307692307693,
        "middle": 0.8351648351648352,
        "end": 0.08791208791208792,
        "only": 0.0
      }
    },
    "9": {
      "start": 0,
      "middle": 4,
      "end": 0,
      "only": 0,
      "total": 4,
      "ratios": {
        "start": 0.0,
        "middle": 1.0,
        "end": 0.0,
        "only": 0.0
      }
    },
    "C": {
      "start": 2184,
      "middle": 1696,
      "end": 12,
      "only": 2,
      "total": 3894,
      "ratios": {
        "start": 0.5608628659476117,
        "middle": 0.43554185927067285,
        "end": 0.0030816640986132513,
        "only": 0.0005136106831022085
      }
    },
    "F": {
      "start": 25,
      "middle": 12,
      "end": 0,
      "only": 0,
      "total": 37,
      "ratios": {
        "start": 0.6756756756756757,
        "middle": 0.32432432432432434,
        "end": 0.0,
        "only": 0.0
      }
    },
    "K": {
      "start": 149,
      "middle": 173,
      "end": 2,
      "only": 0,
      "total": 324,
      "ratios": {
        "start": 0.45987654320987653,
        "middle": 0.5339506172839507,
        "end": 0.006172839506172839,
        "only": 0.0
      }
    },
    "P": {
      "start": 82,
      "middle": 30,
      "end": 0,
      "only": 0,
      "total": 112,
      "ratios": {
        "start": 0.7321428571428571,
        "middle": 0.26785714285714285,
        "end": 0.0,
        "only": 0.0
      }
    },
    "S": {
      "start": 989,
      "middle": 348,
      "end": 9,
      "only": 10,
      "total": 1356,
      "ratios": {
        "start": 0.7293510324483776,
        "middle": 0.25663716814159293,
        "end": 0.00663716814159292,
        "only": 0.007374631268436578
      }
    },
    "T": {
      "start": 405,
      "middle": 143,
      "end": 3,
      "only": 3,
      "total": 554,
      "ratios": {
        "start": 0.7310469314079422,
        "middle": 0.2581227436823105,
        "end": 0.005415162454873646,
        "only": 0.005415162454873646
      }
    },
    "a": {
      "start": 284,
      "middle": 3163,
      "end": 31,
      "only": 1,
      "total": 3479,
      "ratios": {
        "start": 0.08163265306122448,
        "middle": 0.9091693015234262,
        "end": 0.008910606496119574,
        "only": 0.0002874389192296637
      }
    },
    "d": {
      "start": 1648,
      "middle": 1198,
      "end": 165,
      "only": 40,
      "total": 3051,
      "ratios": {
        "start": 0.5401507702392658,
        "middle": 0.39265814487053424,
        "end": 0.05408062930186824,
        "only": 0.013110455588331694
      }
    },
    "f": {
      "start": 40,
      "middle": 54,
      "end": 6,
      "only": 0,
      "total": 100,
      "ratios": {
        "start": 0.4,
        "middle": 0.54,
        "end": 0.06,
        "only": 0.0
      }
    },
    "g": {
      "start": 0,
      "middle": 3,
      "end": 56,
      "only": 8,
      "total": 67,
      "ratios": {
        "start": 0.0,
        "middle": 0.04477611940298507,
        "end": 0.835820895522388,
        "only": 0.11940298507462686
      }
    },
    "j": {
      "start": 1,
      "middle": 2,
      "end": 3,
      "only": 0,
      "total": 6,
      "ratios": {
        "start": 0.16666666666666666,
        "middle": 0.3333333333333333,
        "end": 0.5,
        "only": 0.0
      }
    },
    "k": {
      "start": 483,
      "middle": 1810,
      "end": 23,
      "only": 2,
      "total": 2318,
      "ratios": {
        "start": 0.2083692838654012,
        "middle": 0.7808455565142364,
        "end": 0.00992234685073339,
        "only": 0.0008628127696289905
      }
    },
    "l": {
      "start": 59,
      "middle": 770,
      "end": 2055,
      "only": 29,
      "total": 2913,
      "ratios": {
        "start": 0.020254033642293168,
        "middle": 0.2643323034672159,
        "end": 0.7054582904222451,
        "only": 0.009955372468245795
      }
    },
    "m": {
      "start": 1,
      "middle": 9,
      "end": 329,
      "only": 2,
      "total": 341,
      "ratios": {
        "start": 0.002932551319648094,
        "middle": 0.026392961876832845,
        "end": 0.9648093841642229,
        "only": 0.005865102639296188
      }
    },
    "n": {
      "start": 0,
      "middle": 20,
      "end": 1765,
      "only": 3,
      "total": 1788,
      "ratios": {
        "start": 0.0,
        "middle": 0.011185682326621925,
        "end": 0.9871364653243848,
        "only": 0.0016778523489932886
      }
    },
    "o": {
      "start": 1832,
      "middle": 6040,
      "end": 565,
      "only": 67,
      "total": 8504,
      "ratios": {
        "start": 0.2154280338664158,
        "middle": 0.7102539981185324,
        "end": 0.06643932267168391,
        "only": 0.007878645343367827
      }
    },
    "p": {
      "start": 123,
      "middle": 175,
      "end": 8,
      "only": 0,
      "total": 306,
      "ratios": {
        "start": 0.4019607843137255,
        "middle": 0.5718954248366013,
        "end": 0.026143790849673203,
        "only": 0.0
      }
    },
    "q": {
      "start": 1118,
      "middle": 10,
      "end": 0,
      "only": 0,
      "total": 1128,
      "ratios": {
        "start": 0.9911347517730497,
        "middle": 0.008865248226950355,
        "end": 0.0,
        "only": 0.0
      }
    },
    "r": {
      "start": 35,
      "middle": 317,
      "end": 1827,
      "only": 54,
      "total": 2233,
      "ratios": {
        "start": 0.01567398119122257,
        "middle": 0.141961486789073,
        "end": 0.8181818181818182,
        "only": 0.02418271383788625
      }
    },
    "s": {
      "start": 308,
      "middle": 120,
      "end": 349,
      "only": 203,
      "total": 980,
      "ratios": {
        "start": 0.3142857142857143,
        "middle": 0.12244897959183673,
        "end": 0.35612244897959183,
        "only": 0.20714285714285716
      }
    },
    "t": {
      "start": 364,
      "middle": 1201,
      "end": 27,
      "only": 7,
      "total": 1599,
      "ratios": {
        "start": 0.22764227642276422,
        "middle": 0.7510944340212633,
        "end": 0.016885553470919325,
        "only": 0.004377736085053158
      }
    },
    "y": {
      "start": 619,
      "middle": 184,
      "end": 3516,
      "only": 92,
      "total": 4411,
      "ratios": {
        "start": 0.14033099070505553,
        "middle": 0.041713897075493084,
        "end": 0.7970981636817048,
        "only": 0.020856948537746542
      }
    }
  },
  "position_totals": {
    "start": 10804,
    "middle": 22156,
    "end": 10804,
    "only": 525,
    "total": 44289
  },
  "name": "language_a",
  "description": "Currier Language A",
  "page_count": 114,
  "word_count": 11329
}