{
  "charset": [
    "1",
    "2",
    "3",
    "6",
    "7",
    "8",
    "C",
    "F",
    "K",
    "P",
    "S",
    "T",
    "a",
    "d",
    "f",
    "g",
    "j",
    "k",
    "l",
    "m",
    "n",
    "o",
    "p",
    "q",
    "r",
    "s",
    "t",
    "y"
  ],
  "characters": {
    "1": {
      "start": 0,
      "middle": 99,
      "end": 1,
      "only": 0,
      "total": 100,
      "ratios": {
        "start": 0.0,
        "middle": 0.99,
        "end": 0.01,
        "only": 0.0
      }
    },
    "2": {
      "start": 0,
      "middle": 285,
      "end": 1,
      "only": 0,
      "total": 286,
      "ratios": {
        "start": 0.0,
        "middle": 0.9965034965034965,
        "end": 0.0034965034965034965,
        "only": 0.0
      }
    },
    "3": {
      "start": 0,
      "middle": 12,
      "end": 0,
      "only": 0,
      "total": 12,
      "ratios": {
        "start": 0.0,
        "middle": 1.0,
        "end": 0.0,
        "only": 0.0
      }
    },
    "6": {
      "start": 9,
      "middle": 746,
      "end": 4,
      "only": 1,
      "total": 760,
      "ratios": {
        "start": 0.011842105263157895,
        "middle": 0.9815789473684211,
        "end": 0.005263157894736842,
        "only": 0.0013157894736842105
      }
    },
    "7": {
      "start": 5,
      "middle": 281,
      "end": 2,
      "only": 0,
      "total": 288,
      "ratios": {
        "start": 0.017361111111111112,
        "middle": 0.9756944444444444,
        "end": 0.006944444444444444,
        "only": 0.0
      }
    },
    "8": {
      "start": 3,
      "middle": 25,
      "end": 0,
      "only": 0,
      "total": 28,
      "ratios": {
        "start": 0.10714285714285714,
        "middle": 0.8928571428571429,
        "end": 0.0,
        "only": 0.0
      }
    },
    "C": {
      "start": 439,
      "middle": 151,
      "end": 1,
      "only": 1,
      "total": 592,
      "ratios": {
        "start": 0.7415540540540541,
        "middle": 0.25506756756756754,
        "end": 0.0016891891891891893,
        "only": 0.0016891891891891893
      }
    },
    "F": {
      "start": 4,
      "middle": 1,
      "end": 0,
      "only": 0,
      "total": 5,
      "ratios": {
        "start": 0.8,
        "middle": 0.2,
        "end": 0.0,
        "only": 0.0
      }
    },
    "K": {
      "start": 35,
      "middle": 72,
      "end": 0,
      "only": 0,
      "total": 107,
      "ratios": {
        "start": 0.32710280373831774,
        "middle": 0.6728971962616822,
        "end": 0.0,
        "only": 0.0
      }
    },
    "P": {
      "start": 12,
      "middle": 6,
      "end": 0,
      "only": 0,
      "total": 18,
      "ratios": {
        "start": 0.6666666666666666,
        "middle": 0.3333333333333333,
        "end": 0.0,
        "only": 0.0
      }
    },
    "S": {
      "start": 184,
      "middle": 45,
      "end": 1,
      "only": 1,
      "total": 231,
      "ratios": {
        "start": 0.7965367965367965,
        "middle": 0.19480519480519481,
        "end": 0.004329004329004329,
        "only": 0.004329004329004329
      }
    },
    "T": {
      "start": 42,
      "middle": 17,
      "end": 0,
      "only": 0,
      "total": 59,
      "ratios": {
        "start": 0.711864406779661,
        "middle": 0.288135593220339,
        "end": 0.0,
        "only": 0.0
      }
    },
    "a": {
      "start": 80,
      "middle": 548,
      "end": 7,
      "only": 1,
      "total": 636,
      "ratios": {
        "start": 0.12578616352201258,
        "middle": 0.8616352201257862,
        "end": 0.0110062893081761,
        "only": 0.0015723270440251573
      }
    },
    "d": {
      "start": 300,
      "middle": 304,
      "end": 23,
      "only": 3,
      "total": 630,
      "ratios": {
        "start": 0.47619047619047616,
        "middle": 0.48253968253968255,
        "end": 0.03650793650793651,
        "only": 0.004761904761904762
      }
    },
    "f": {
      "start": 6,
      "middle": 14,
      "end": 1,
      "only": 0,
      "total": 21,
      "ratios": {
        "start": 0.2857142857142857,
        "middle": 0.6666666666666666,
        "end": 0.047619047619047616,
        "only": 0.0
      }
    },
    "g": {
      "start": 0,
      "middle": 2,
      "end": 6,
      "only": 0,
      "total": 8,
      "ratios": {
        "start": 0.0,
        "middle": 0.25,
        "end": 0.75,
        "only": 0.0
      }
    },
    "j": {
      "start": 0,
      "middle": 1,
      "end": 0,
      "only": 0,
      "total": 1,
      "ratios": {
        "start": 0.0,
        "middle": 1.0,
        "end": 0.0,
        "only": 0.0
      }
    },
    "k": {
      "start": 68,
      "middle": 542,
      "end": 6,
      "only": 0,
      "total": 616,
      "ratios": {
        "start": 0.11038961038961038,
        "middle": 0.8798701298701299,
        "end": 0.00974025974025974,
        "only": 0.0
      }
    },
    "l": {
      "start": 16,
      "middle": 193,
      "end": 545,
      "only": 8,
      "total": 762,
      "ratios": {
        "start": 0.02099737532808399,
        "middle": 0.2532808398950131,
        "end": 0.7152230971128609,
        "only": 0.010498687664041995
      }
    },
    "m": {
      "start": 0,
      "middle": 4,
      "end": 58,
      "only": 0,
      "total": 62,
      "ratios": {
        "start": 0.0,
        "middle": 0.06451612903225806,
        "end": 0.9354838709677419,
        "only": 0.0
      }
    },
    "n": {
      "start": 0,
      "middle": 3,
      "end": 324,
      "only": 0,
      "total": 327,
      "ratios": {
        "start": 0.0,
        "middle": 0.009174311926605505,
        "end": 0.9908256880733946,
        "only": 0.0
      }
    },
    "o": {
      "start": 493,
      "middle": 1447,
      "end": 93,
      "only": 15,
      "total": 2048,
      "ratios": {
        "start": 0.24072265625,
        "middle": 0.70654296875,
        "end": 0.04541015625,
        "only": 0.00732421875
      }
    },
    "p": {
      "start": 22,
      "middle": 29,
      "end": 1,
      "only": 0,
      "total": 52,
      "ratios": {
        "start": 0.4230769230769231,
        "middle": 0.5576923076923077,
        "end": 0.019230769230769232,
        "only": 0.0
      }
    },
    "q": {
      "start": 297,
      "middle": 2,
      "end": 0,
      "only": 0,
      "total": 299,
      "ratios": {
        "start": 0.9933110367892977,
        "middle": 0.006688963210702341,
        "end": 0.0,
        "only": 0.0
      }
    },
    "r": {
      "start": 11,
      "middle": 83,
      "end": 352,
      "only": 13,
      "total": 459,
      "ratios": {
        "start": 0.023965141612200435,
        "middle": 0.18082788671023964,
        "end": 0.7668845315904139,
        "only": 0.02832244008714597
      }
    },
    "s": {
      "start": 73,
      "middle": 30,
      "end": 73,
      "only": 45,
      "total": 221,
      "ratios": {
        "start": 0.33031674208144796,
        "middle": 0.13574660633484162,
        "end": 0.33031674208144796,
        "only": 0.20361990950226244
      }
    },
    "t": {
      "start": 35,
      "middle": 120,
      "end": 0,
      "only": 0,
      "total": 155,
      "ratios": {
        "start": 0.22580645161290322,
        "middle": 0.7741935483870968,
        "end": 0.0,
        "only": 0.0
      }
    },
    "y": {
      "start": 111,
      "middle": 20,
      "end": 746,
      "only": 6,
      "total": 883,
      "ratios": {
        "start": 0.12570781426953567,
        "middle": 0.022650056625141562,
        "end": 0.8448471121177803,
        "only": 0.006795016987542469
      }
    }
  },
  "position_totals": {
    "start": 2245,
    "middle": 5082,
    "end": 2245,
    "only": 94,
    "total": 9666
  },
  "name": "pharmaceutical",
  "description": "Pharmaceutical section",
  "page_count": 16,
  "word_count": 2339,
  "pages": [
    {
      "folio": "f88r",
      "quire": "O",
      "language": "A",
      "hand": "4",
      "illustration": "P"
    },
    {
      "folio": "f88v",
      "quire": "O",
      "language": "A",
      "hand": "4",
      "illustration": "P"
    },
    {
      "folio": "f89r1",
      "quire": "O",
      "language": "A",
      "hand": "1",
      "illustration": "P"
    },
    {
      "folio": "f89r2",
      "quire": "O",
      "language": "A",
      "hand": "1",
      "illustration": "P"
    },
    {
      "folio": "f89v2",
      "quire": "O",
      "language": "A",
      "hand": "1",
      "illustration": "P"
    },
    {
      "folio": "f89v1",
      "quire": "O",
      "language": "A",
      "hand": "1",
      "illustration": "P"
    },
    {
      "folio": "f99r",
      "quire": "S",
      "language": "A",
      "hand": "4",
      "illustration": "P"
    },
    {
      "folio": "f99v",
      "quire": "S",
      "language": "A",
      "hand": "4",
      "illustration": "P"
    },
    {
      "folio": "f100r",
      "quire": "S",
      "language": "A",
      "hand": "4",
      "illustration": "P"
    },
    {
      "folio": "f100v",
      "quire": "S",
      "language": "A",
      "hand": "4",
      "illustration": "P"
    },
    {
      "folio": "f101r",
      "quire": "S",
      "language": "A",
      "hand": "4",
      "illustration": "P"
    },
    {
      "folio": "f101v",
      "quire": "S",
      "language": "A",
      "hand": "4",
      "illustration": "P"
    },
    {
      "folio": "f102r1",
      "quire": "S",
      "language": "A",
      "hand": "1",
      "illustration": "P"
    },
    {
      "folio": "f102r2",
      "quire": "S",
      "language": "A",
      "hand": "1",
      "illustration": "P"
    },
    {
      "folio": "f102v2",
      "quire": "S",
      "language": "A",
      "hand": "1",
      "illustration": "P"
    },
    {
      "folio": "f102v1",
      "quire": "S",
      "language": "A",
      "hand": "1",
      "illustration": "P"
    }
  ]
}