{
  "charset": [
    "1",
    "2",
    "3",
    "6",
    "7",
    "8",
    "9",
    "C",
    "F",
    "K",
    "P",
    "S",
    "T",
    "a",
    "d",
    "f",
    "g",
    "j",
    "k",
    "l",
    "m",
    "n",
    "o",
    "p",
    "q",
    "r",
    "s",
    "t",
    "x",
    "y"
  ],
  "characters": {
    "1": {
      "start": 2,
      "middle": 1107,
      "end": 4,
      "only": 0,
      "total": 1113,
      "ratios": {
        "start": 0.0017969451931716084,
        "middle": 0.9946091644204852,
        "end": 0.0035938903863432167,
        "only": 0.0
      }
    },
    "2": {
      "start": 3,
      "middle": 1394,
      "end": 0,
      "only": 0,
      "total": 1397,
      "ratios": {
        "start": 0.0021474588403722263,
        "middle": 0.9978525411596277,
        "end": 0.0,
        "only": 0.0
      }
    },
    "3": {
      "start": 0,
      "middle": 62,
      "end": 1,
      "only": 0,
      "total": 63,
      "ratios": {
        "start": 0.0,
        "middle": 0.9841269841269841,
        "end": 0.015873015873015872,
        "only": 0.0
      }
    },
    "6": {
      "start": 5,
      "middle": 3126,
      "end": 14,
      "only": 1,
      "total": 3146,
      "ratios": {
        "start": 0.001589319771137953,
        "middle": 0.9936427209154481,
        "end": 0.004450095359186269,
        "only": 0.0003178639542275906
      }
    },
    "7": {
      "start": 9,
      "middle": 1823,
      "end": 8,
      "only": 0,
      "total": 1840,
      "ratios": {
        "start": 0.004891304347826087,
        "middle": 0.9907608695652174,
        "end": 0.004347826086956522,
        "only": 0.0
      }
    },
    "8": {
      "start": 8,
      "middle": 172,
      "end": 0,
      "only": 0,
      "total": 180,
      "ratios": {
        "start": 0.044444444444444446,
        "middle": 0.9555555555555556,
        "end": 0.0,
        "only": 0.0
      }
    },
    "9": {
      "start": 0,
      "middle": 1,
      "end": 0,
      "only": 0,
      "total": 1,
      "ratios": {
        "start": 0.0,
        "middle": 1.0,
        "end": 0.0,
        "only": 0.0
      }
    },
    "C": {
      "start": 1771,
      "middle": 1471,
      "end": 3,
      "only": 3,
      "total": 3248,
      "ratios": {
        "start": 0.5452586206896551,
        "middle": 0.45289408866995073,
        "end": 0.0009236453201970443,
        "only": 0.0009236453201970443
      }
    },
    "F": {
      "start": 1,
      "middle": 7,
      "end": 0,
      "only": 0,
      "total": 8,
      "ratios": {
        "start": 0.125,
        "middle": 0.875,
        "end": 0.0,
        "only": 0.0
      }
    },
    "K": {
      "start": 11,
      "middle": 189,
      "end": 0,
      "only": 0,
      "total": 200,
      "ratios": {
        "start": 0.055,
        "middle": 0.945,
        "end": 0.0,
        "only": 0.0
      }
    },
    "P": {
      "start": 15,
      "middle": 23,
      "end": 0,
      "only": 0,
      "total": 38,
      "ratios": {
        "start": 0.39473684210526316,
        "middle": 0.6052631578947368,
        "end": 0.0,
        "only": 0.0
      }
    },
    "S": {
      "start": 798,
      "middle": 307,
      "end": 1,
      "only": 3,
      "total": 1109,
      "ratios": {
        "start": 0.7195671776375113,
        "middle": 0.2768259693417493,
        "end": 0.0009017132551848512,
        "only": 0.002705139765554554
      }
    },
    "T": {
      "start": 21,
      "middle": 93,
      "end": 1,
      "only": 0,
      "total": 115,
      "ratios": {
        "start": 0.1826086956521739,
        "middle": 0.808695652173913,
        "end": 0.008695652173913044,
        "only": 0.0
      }
    },
    "a": {
      "start": 893,
      "middle": 3960,
      "end": 14,
      "only": 5,
      "total": 4872,
      "ratios": {
        "start": 0.18329228243021348,
        "middle": 0.812807881773399,
        "end": 0.0028735632183908046,
        "only": 0.001026272577996716
      }
    },
    "d": {
      "start": 480,
      "middle": 2961,
      "end": 189,
      "only": 1,
      "total": 3631,
      "ratios": {
        "start": 0.1321949876067199,
        "middle": 0.8154778297989534,
        "end": 0.052051776370145963,
        "only": 0.0002754062241806665
      }
    },
    "f": {
      "start": 37,
      "middle": 56,
      "end": 2,
      "only": 1,
      "total": 96,
      "ratios": {
        "start": 0.3854166666666667,
        "middle": 0.5833333333333334,
        "end": 0.020833333333333332,
        "only": 0.010416666666666666
      }
    },
    "g": {
      "start": 1,
      "middle": 2,
      "end": 17,
      "only": 1,
      "total": 21,
      "ratios": {
        "start": 0.047619047619047616,
        "middle": 0.09523809523809523,
        "end": 0.8095238095238095,
        "only": 0.047619047619047616
      }
    },
    "j": {
      "start": 0,
      "middle": 3,
      "end": 0,
      "only": 0,
      "total": 3,
      "ratios": {
        "start": 0.0,
        "middle": 1.0,
        "end": 0.0,
        "only": 0.0
      }
    },
    "k": {
      "start": 375,
      "middle": 2857,
      "end": 22,
      "only": 0,
      "total": 3254,
      "ratios": {
        "start": 0.11524277811923786,
        "middle": 0.8779963122311002,
        "end": 0.006760909649661954,
        "only": 0.0
      }
    },
    "l": {
      "start": 715,
      "middle": 777,
      "end": 1385,
      "only": 104,
      "total": 2981,
      "ratios": {
        "start": 0.23985239852398524,
        "middle": 0.2606507883260651,
        "end": 0.4646091915464609,
        "only": 0.03488762160348876
      }
    },
    "m": {
      "start": 0,
      "middle": 11,
      "end": 308,
      "only": 1,
      "total": 320,
      "ratios": {
        "start": 0.0,
        "middle": 0.034375,
        "end": 0.9625,
        "only": 0.003125
      }
    },
    "n": {
      "start": 0,
      "middle": 31,
      "end": 2126,
      "only": 0,
      "total": 2157,
      "ratios": {
        "start": 0.0,
        "middle": 0.014371812702828002,
        "end": 0.9856281872971719,
        "only": 0.0
      }
    },
    "o": {
      "start": 2427,
      "middle": 3851,
      "end": 334,
      "only": 41,
      "total": 6653,
      "ratios": {
        "start": 0.36479783556290396,
        "middle": 0.5788366150608748,
        "end": 0.0502029159777544,
        "only": 0.006162633398466857
      }
    },
    "p": {
      "start": 228,
      "middle": 307,
      "end": 9,
      "only": 1,
      "total": 545,
      "ratios": {
        "start": 0.41834862385321103,
        "middle": 0.563302752293578,
        "end": 0.01651376146788991,
        "only": 0.001834862385321101
      }
    },
    "q": {
      "start": 1877,
      "middle": 8,
      "end": 0,
      "only": 0,
      "total": 1885,
      "ratios": {
        "start": 0.9957559681697613,
        "middle": 0.004244031830238726,
        "end": 0.0,
        "only": 0.0
      }
    },
    "r": {
      "start": 177,
      "middle": 394,
      "end": 1540,
      "only": 40,
      "total": 2151,
      "ratios": {
        "start": 0.08228730822873083,
        "middle": 0.18317061831706183,
        "end": 0.7159460715946072,
        "only": 0.018596001859600187
      }
    },
    "s": {
      "start": 189,
      "middle": 66,
      "end": 224,
      "only": 27,
      "total": 506,
      "ratios": {
        "start": 0.37351778656126483,
        "middle": 0.13043478260869565,
        "end": 0.4426877470355731,
        "only": 0.0533596837944664
      }
    },
    "t": {
      "start": 247,
      "middle": 1464,
      "end": 16,
      "only": 0,
      "total": 1727,
      "ratios": {
        "start": 0.14302258251302838,
        "middle": 0.8477127967573828,
        "end": 0.009264620729588882,
        "only": 0.0
      }
    },
    "x": {
      "start": 1,
      "middle": 7,
      "end": 6,
      "only": 0,
      "total": 14,
      "ratios": {
        "start": 0.07142857142857142,
        "middle": 0.5,
        "end": 0.42857142857142855,
        "only": 0.0
      }
    },
    "y": {
      "start": 297,
      "middle": 84,
      "end": 4364,
      "only": 74,
      "total": 4819,
      "ratios": {
        "start": 0.06163104378501764,
        "middle": 0.017431002282631253,
        "end": 0.9055820709690807,
        "only": 0.015355882963270388
      }
    }
  },
  "position_totals": {
    "start": 10588,
    "middle": 26614,
    "end": 10588,
    "only": 303,
    "total": 48093
  },
  "name": "quire_20",
  "description": "Quire 20",
  "page_count": 24,
  "word_count": 10891,
  "pages": [
    {
      "folio": "f103r",
      "quire": "T",
      "language": "B",
      "hand": "3",
      "illustration": "S"
    },
    {
      "folio": "f103v",
      "quire": "T",
      "language": "B",
      "hand": "3",
      "illustration": "S"
    },
    {
      "folio": "f104r",
      "quire": "T",
      "language": "B",
      "hand": "3",
      "illustration": "S"
    },
    {
      "folio": "f104v",
      "quire": "T",
      "language": "B",
      "hand": "3",
      "illustration": "S"
    },
    {
      "folio": "f105r",
      "quire": "T",
      "language": "B",
      "hand": "3",
      "illustration": "S"
    },
    {
      "folio": "f105v",
      "quire": "T",
      "language": "B",
      "hand": "3",
      "illustration": "S"
    },
    {
      "folio": "f106r",
      "quire": "T",
      "language": "B",
      "hand": "3",
      "illustration": "S"
    },
    {
      "folio": "f106v",
      "quire": "T",
      "language": "B",
      "hand": "3",
      "illustration": "S"
    },
    {
      "folio": "f107r",
      "quire": "T",
      "language": "B",
      "hand": "3",
      "illustration": "S"
    },
    {
      "folio": "f107v",
      "quire": "T",
      "language": "B",
      "hand": "3",
      "illustration": "S"
    },
    {
      "folio": "f108r",
      "quire": "T",
      "language": "B",
      "hand": "3",
      "illustration": "S"
    },
    {
      "folio": "f108v",
      "quire": "T",
      "language": "B",
      "hand": "3",
      "illustration": "S"
    },
    {
      "folio": "f111r",
      "quire": "T",
      "language": "B",
      "hand": "3",
      "illustration": "S"
    },
    {
      "folio": "f111v",
      "quire": "T",
      "language": "B",
      "hand": "3",
      "illustration": "S"
    },
    {
      "folio": "f112r",
      "quire": "T",
      "language": "B",
      "hand": "3",
      "illustration": "S"
    },
    {
      "folio": "f112v",
      "quire": "T",
      "language": "B",
      "hand": "3",
      "illustration": "S"
    },
    {
      "folio": "f113r",
      "quire": "T",
      "language": "B",
      "hand": "3",
      "illustration": "S"
    },
    {
      "folio": "f113v",
      "quire": "T",
      "language": "B",
      "hand": "3",
      "illustration": "S"
    },
    {
      "folio": "f114r",
      "quire": "T",
      "language": "B",
      "hand": "3",
      "illustration": "S"
    },
    {
      "folio": "f114v",
      "quire": "T",
      "language": "B",
      "hand": "3",
      "illustration": "S"
    },
    {
      "folio": "f115r",
      "quire": "T",
      "language": "B",
      "hand": "",
      "illustration": "S"
    },
    {
      "folio": "f115v",
      "quire": "T",
      "language": "B",
      "hand": "3",
      "illustration": "S"
    },
    {
      "folio": "f116r",
      "quire": "T",
      "language": "B",
      "hand": "3",
      "illustration": "S"
    },
    {
      "folio": "f116v",
      "quire": "T",
      "language": "",
      "hand": "3",
      "illustration": "T"
    }
  ]
}