{
  "charset": [
    "1",
    "2",
    "3",
    "4",
    "6",
    "7",
    "8",
    "C",
    "F",
    "K",
    "P",
    "S",
    "T",
    "a",
    "d",
    "f",
    "g",
    "j",
    "k",
    "l",
    "m",
    "n",
    "o",
    "p",
    "q",
    "r",
    "s",
    "t",
    "y"
  ],
  "characters": {
    "1": {
      "start": 2,
      "middle": 544,
      "end": 1,
      "only": 1,
      "total": 548,
      "ratios": {
        "start": 0.0036496350364963502,
        "middle": 0.9927007299270073,
        "end": 0.0018248175182481751,
        "only": 0.0018248175182481751
      }
    },
    "2": {
      "start": 1,
      "middle": 422,
      "end": 1,
      "only": 0,
      "total": 424,
      "ratios": {
        "start": 0.0023584905660377358,
        "middle": 0.9952830188679245,
        "end": 0.0023584905660377358,
        "only": 0.0
      }
    },
    "3": {
      "start": 0,
      "middle": 27,
      "end": 1,
      "only": 0,
      "total": 28,
      "ratios": {
        "start": 0.0,
        "middle": 0.9642857142857143,
        "end": 0.03571428571428571,
        "only": 0.0
      }
    },
    "4": {
      "start": 0,
      "middle": 1,
      "end": 0,
      "only": 0,
      "total": 1,
      "ratios": {
        "start": 0.0,
        "middle": 1.0,
        "end": 0.0,
        "only": 0.0
      }
    },
    "6": {
      "start": 6,
      "middle": 2391,
      "end": 0,
      "only": 0,
      "total": 2397,
      "ratios": {
        "start": 0.0025031289111389237,
        "middle": 0.9974968710888611,
        "end": 0.0,
        "only": 0.0
      }
    },
    "7": {
      "start": 3,
      "middle": 878,
      "end": 5,
      "only": 0,
      "total": 886,
      "ratios": {
        "start": 0.003386004514672686,
        "middle": 0.9909706546275395,
        "end": 0.0056433408577878106,
        "only": 0.0
      }
    },
    "8": {
      "start": 2,
      "middle": 27,
      "end": 0,
      "only": 0,
      "total": 29,
      "ratios": {
        "start": 0.06896551724137931,
        "middle": 0.9310344827586207,
        "end": 0.0,
        "only": 0.0
      }
    },
    "C": {
      "start": 820,
      "middle": 662,
      "end": 1,
      "only": 2,
      "total": 1485,
      "ratios": {
        "start": 0.5521885521885522,
        "middle": 0.4457912457912458,
        "end": 0.0006734006734006734,
        "only": 0.0013468013468013469
      }
    },
    "F": {
      "start": 2,
      "middle": 2,
      "end": 0,
      "only": 0,
      "total": 4,
      "ratios": {
        "start": 0.5,
        "middle": 0.5,
        "end": 0.0,
        "only": 0.0
      }
    },
    "K": {
      "start": 5,
      "middle": 194,
      "end": 1,
      "only": 0,
      "total": 200,
      "ratios": {
        "start": 0.025,
        "middle": 0.97,
        "end": 0.005,
        "only": 0.0
      }
    },
    "P": {
      "start": 7,
      "middle": 13,
      "end": 0,
      "only": 0,
      "total": 20,
      "ratios": {
        "start": 0.35,
        "middle": 0.65,
        "end": 0.0,
        "only": 0.0
      }
    },
    "S": {
      "start": 760,
      "middle": 328,
      "end": 1,
      "only": 1,
      "total": 1090,
      "ratios": {
        "start": 0.6972477064220184,
        "middle": 0.30091743119266057,
        "end": 0.0009174311926605505,
        "only": 0.0009174311926605505
      }
    },
    "T": {
      "start": 16,
      "middle": 103,
      "end": 0,
      "only": 0,
      "total": 119,
      "ratios": {
        "start": 0.13445378151260504,
        "middle": 0.865546218487395,
        "end": 0.0,
        "only": 0.0
      }
    },
    "a": {
      "start": 172,
      "middle": 1838,
      "end": 6,
      "only": 0,
      "total": 2016,
      "ratios": {
        "start": 0.08531746031746032,
        "middle": 0.9117063492063492,
        "end": 0.002976190476190476,
        "only": 0.0
      }
    },
    "d": {
      "start": 542,
      "middle": 2144,
      "end": 72,
      "only": 5,
      "total": 2763,
      "ratios": {
        "start": 0.19616359030039812,
        "middle": 0.7759681505609844,
        "end": 0.026058631921824105,
        "only": 0.0018096272167933405
      }
    },
    "f": {
      "start": 6,
      "middle": 27,
      "end": 1,
      "only": 0,
      "total": 34,
      "ratios": {
        "start": 0.17647058823529413,
        "middle": 0.7941176470588235,
        "end": 0.029411764705882353,
        "only": 0.0
      }
    },
    "g": {
      "start": 0,
      "middle": 0,
      "end": 7,
      "only": 0,
      "total": 7,
      "ratios": {
        "start": 0.0,
        "middle": 0.0,
        "end": 1.0,
        "only": 0.0
      }
    },
    "j": {
      "start": 0,
      "middle": 1,
      "end": 0,
      "only": 0,
      "total": 1,
      "ratios": {
        "start": 0.0,
        "middle": 1.0,
        "end": 0.0,
        "only": 0.0
      }
    },
    "k": {
      "start": 134,
      "middle": 1868,
      "end": 11,
      "only": 0,
      "total": 2013,
      "ratios": {
        "start": 0.06656731246895181,
        "middle": 0.9279682066567313,
        "end": 0.00546448087431694,
        "only": 0.0
      }
    },
    "l": {
      "start": 354,
      "middle": 796,
      "end": 1195,
      "only": 27,
      "total": 2372,
      "ratios": {
        "start": 0.14924114671163574,
        "middle": 0.33558178752107926,
        "end": 0.5037942664418212,
        "only": 0.011382799325463743
      }
    },
    "m": {
      "start": 0,
      "middle": 1,
      "end": 61,
      "only": 0,
      "total": 62,
      "ratios": {
        "start": 0.0,
        "middle": 0.016129032258064516,
        "end": 0.9838709677419355,
        "only": 0.0
      }
    },
    "n": {
      "start": 0,
      "middle": 13,
      "end": 942,
      "only": 0,
      "total": 955,
      "ratios": {
        "start": 0.0,
        "middle": 0.013612565445026177,
        "end": 0.9863874345549738,
        "only": 0.0
      }
    },
    "o": {
      "start": 1419,
      "middle": 2482,
      "end": 42,
      "only": 18,
      "total": 3961,
      "ratios": {
        "start": 0.3582428679626357,
        "middle": 0.6266094420600858,
        "end": 0.010603382984094925,
        "only": 0.0045443069931835394
      }
    },
    "p": {
      "start": 91,
      "middle": 91,
      "end": 4,
      "only": 0,
      "total": 186,
      "ratios": {
        "start": 0.489247311827957,
        "middle": 0.489247311827957,
        "end": 0.021505376344086023,
        "only": 0.0
      }
    },
    "q": {
      "start": 1665,
      "middle": 13,
      "end": 0,
      "only": 0,
      "total": 1678,
      "ratios": {
        "start": 0.9922526817640047,
        "middle": 0.0077473182359952325,
        "end": 0.0,
        "only": 0.0
      }
    },
    "r": {
      "start": 114,
      "middle": 136,
      "end": 636,
      "only": 32,
      "total": 918,
      "ratios": {
        "start": 0.12418300653594772,
        "middle": 0.14814814814814814,
        "end": 0.6928104575163399,
        "only": 0.034858387799564274
      }
    },
    "s": {
      "start": 277,
      "middle": 31,
      "end": 83,
      "only": 26,
      "total": 417,
      "ratios": {
        "start": 0.6642685851318945,
        "middle": 0.07434052757793765,
        "end": 0.19904076738609114,
        "only": 0.06235011990407674
      }
    },
    "t": {
      "start": 142,
      "middle": 695,
      "end": 2,
      "only": 1,
      "total": 840,
      "ratios": {
        "start": 0.16904761904761906,
        "middle": 0.8273809523809523,
        "end": 0.002380952380952381,
        "only": 0.0011904761904761906
      }
    },
    "y": {
      "start": 117,
      "middle": 70,
      "end": 3584,
      "only": 49,
      "total": 3820,
      "ratios": {
        "start": 0.0306282722513089,
        "middle": 0.01832460732984293,
        "end": 0.9382198952879581,
        "only": 0.012827225130890052
      }
    }
  },
  "position_totals": {
    "start": 6657,
    "middle": 15798,
    "end": 6657,
    "only": 162,
    "total": 29274
  },
  "name": "quire_13",
  "description": "Quire 13",
  "page_count": 20,
  "word_count": 6819
}